{"nodes": [
{"id": "Neurod6", "group":1},
{"id": "Sox11", "group":1},
{"id": "Neurod2", "group":1},
{"id": "Tsc22d1", "group":1},
{"id": "Id2", "group":1},
{"id": "Tmsb4x", "group":1},
{"id": "Gria2", "group":1},
{"id": "Igfbpl1", "group":1},
{"id": "Sp9", "group":1},
{"id": "Dlx2", "group":1},
{"id": "Stmn2", "group":1},
{"id": "H3f3a", "group":1},
{"id": "Tubb2a", "group":1},
{"id": "Nrxn3", "group":1},
{"id": "Ybx1", "group":1},
{"id": "Tuba1a", "group":1},
{"id": "Pfn2", "group":1},
{"id": "Dlx6os1", "group":1},
{"id": "Dlx1", "group":1},
{"id": "Arx", "group":1},
{"id": "Gad2", "group":1},
{"id": "Tubb3", "group":1},
{"id": "Nnat", "group":1},
{"id": "Map1b", "group":1},
{"id": "Dlx5", "group":1},
{"id": "Meg3", "group":1},
{"id": "Ube2l6", "group":1},
{"id": "Hba.a2", "group":1},
{"id": "Hbb.bt", "group":1},
{"id": "Hba.a1", "group":1},
{"id": "Alas2", "group":1},
{"id": "Hbb.bs", "group":1},
{"id": "Fech", "group":1},
{"id": "Cst3", "group":1},
{"id": "Dbi", "group":1},
{"id": "Fabp7", "group":1},
{"id": "Ptn", "group":1},
{"id": "Hmgb2", "group":1},
{"id": "Rpl22l1", "group":1},
{"id": "Mt3", "group":1},
{"id": "Slc25a5", "group":1},
{"id": "Mt1", "group":1},
{"id": "Vim", "group":1},
{"id": "H2afv", "group":1},
{"id": "Ckb", "group":1},
{"id": "Rpl39", "group":1},
{"id": "Pfn1", "group":1},
{"id": "Cd24a", "group":1},
{"id": "Ppp2r2b", "group":1},
{"id": "Sox4", "group":1},
{"id": "Gpm6a", "group":1},
{"id": "Malat1", "group":1},
{"id": "mt.Cytb", "group":1},
{"id": "Tmsb10", "group":1},
{"id": "Ezr", "group":1},
{"id": "Kif23", "group":1},
{"id": "Mdk", "group":1},
{"id": "Pcp4", "group":1},
{"id": "Lhx2", "group":1},
{"id": "Hmgn2", "group":1},
{"id": "Maf", "group":1},
{"id": "Mllt11", "group":1},
{"id": "Mef2c", "group":1},
{"id": "Nrp1", "group":1},
{"id": "Gnai2", "group":1},
{"id": "Gng5", "group":1},
{"id": "Qk", "group":1},
{"id": "Sparc", "group":1},
{"id": "Ranbp1", "group":1},
{"id": "Prdx1", "group":1},
{"id": "H2afz", "group":1},
{"id": "Glul", "group":1},
{"id": "X1810037I17Rik", "group":1},
{"id": "Cd9", "group":1},
{"id": "Anp32b", "group":1},
{"id": "Ccnd2", "group":1},
{"id": "Pmf1", "group":1},
{"id": "Clic1", "group":1},
{"id": "Ran", "group":1},
{"id": "Hmgb1", "group":1},
{"id": "Ppia", "group":1}
],"links": [
{"source":"Neurod6","target":"Sox11","value":264},
{"source":"Neurod6","target":"Neurod2","value":360},
{"source":"Neurod6","target":"Tsc22d1","value":372},
{"source":"Neurod6","target":"Id2","value":276},
{"source":"Neurod6","target":"Gria2","value":264},
{"source":"Neurod6","target":"Igfbpl1","value":192},
{"source":"Neurod6","target":"Tuba1a","value":192},
{"source":"Neurod6","target":"Cd24a","value":336},
{"source":"Neurod6","target":"Sox4","value":228},
{"source":"Neurod6","target":"Gpm6a","value":252},
{"source":"Sox11","target":"Neurod6","value":264},
{"source":"Sox11","target":"Neurod2","value":288},
{"source":"Sox11","target":"Tsc22d1","value":300},
{"source":"Sox11","target":"Igfbpl1","value":288},
{"source":"Sox11","target":"Cd24a","value":264},
{"source":"Sox11","target":"Ppp2r2b","value":228},
{"source":"Sox11","target":"Sox4","value":228},
{"source":"Neurod2","target":"Neurod6","value":360},
{"source":"Neurod2","target":"Sox11","value":288},
{"source":"Neurod2","target":"Tsc22d1","value":384},
{"source":"Neurod2","target":"Id2","value":264},
{"source":"Neurod2","target":"Gria2","value":228},
{"source":"Neurod2","target":"Igfbpl1","value":216},
{"source":"Neurod2","target":"Cd24a","value":360},
{"source":"Neurod2","target":"Sox4","value":228},
{"source":"Neurod2","target":"Gpm6a","value":240},
{"source":"Tsc22d1","target":"Neurod6","value":372},
{"source":"Tsc22d1","target":"Sox11","value":300},
{"source":"Tsc22d1","target":"Neurod2","value":384},
{"source":"Tsc22d1","target":"Id2","value":288},
{"source":"Tsc22d1","target":"Gria2","value":228},
{"source":"Tsc22d1","target":"Igfbpl1","value":228},
{"source":"Tsc22d1","target":"Tuba1a","value":204},
{"source":"Tsc22d1","target":"Cd24a","value":360},
{"source":"Tsc22d1","target":"Sox4","value":228},
{"source":"Tsc22d1","target":"Gpm6a","value":264},
{"source":"Id2","target":"Neurod6","value":276},
{"source":"Id2","target":"Neurod2","value":264},
{"source":"Id2","target":"Tsc22d1","value":288},
{"source":"Id2","target":"Gria2","value":216},
{"source":"Id2","target":"Tuba1a","value":204},
{"source":"Id2","target":"Cd24a","value":240},
{"source":"Id2","target":"Gpm6a","value":252},
{"source":"Tmsb4x","target":"Gria2","value":348},
{"source":"Tmsb4x","target":"Malat1","value":264},
{"source":"Tmsb4x","target":"mt.Cytb","value":264},
{"source":"Tmsb4x","target":"Tmsb10","value":264},
{"source":"Gria2","target":"Neurod6","value":264},
{"source":"Gria2","target":"Neurod2","value":228},
{"source":"Gria2","target":"Tsc22d1","value":228},
{"source":"Gria2","target":"Id2","value":216},
{"source":"Gria2","target":"Tmsb4x","value":348},
{"source":"Gria2","target":"Cd24a","value":204},
{"source":"Gria2","target":"Gpm6a","value":204},
{"source":"Gria2","target":"Malat1","value":228},
{"source":"Gria2","target":"mt.Cytb","value":240},
{"source":"Gria2","target":"Tmsb10","value":228},
{"source":"Igfbpl1","target":"Neurod6","value":192},
{"source":"Igfbpl1","target":"Sox11","value":288},
{"source":"Igfbpl1","target":"Neurod2","value":216},
{"source":"Igfbpl1","target":"Tsc22d1","value":228},
{"source":"Igfbpl1","target":"Cd24a","value":192},
{"source":"Igfbpl1","target":"Ppp2r2b","value":264},
{"source":"Igfbpl1","target":"Ezr","value":216},
{"source":"Igfbpl1","target":"Mdk","value":216},
{"source":"Igfbpl1","target":"Pcp4","value":228},
{"source":"Igfbpl1","target":"Lhx2","value":216},
{"source":"Sp9","target":"Dlx2","value":300},
{"source":"Sp9","target":"Stmn2","value":288},
{"source":"Sp9","target":"H3f3a","value":288},
{"source":"Sp9","target":"Nrxn3","value":300},
{"source":"Sp9","target":"Ybx1","value":216},
{"source":"Sp9","target":"Tuba1a","value":288},
{"source":"Sp9","target":"Pfn2","value":288},
{"source":"Sp9","target":"Dlx6os1","value":239},
{"source":"Sp9","target":"Dlx1","value":288},
{"source":"Sp9","target":"Gad2","value":216},
{"source":"Sp9","target":"Tubb3","value":288},
{"source":"Sp9","target":"Nnat","value":300},
{"source":"Sp9","target":"Dlx5","value":300},
{"source":"Sp9","target":"Meg3","value":288},
{"source":"Sp9","target":"Tmsb10","value":228},
{"source":"Dlx2","target":"Sp9","value":300},
{"source":"Dlx2","target":"Stmn2","value":288},
{"source":"Dlx2","target":"H3f3a","value":288},
{"source":"Dlx2","target":"Tubb2a","value":192},
{"source":"Dlx2","target":"Nrxn3","value":420},
{"source":"Dlx2","target":"Ybx1","value":336},
{"source":"Dlx2","target":"Tuba1a","value":288},
{"source":"Dlx2","target":"Pfn2","value":288},
{"source":"Dlx2","target":"Dlx6os1","value":239},
{"source":"Dlx2","target":"Dlx1","value":288},
{"source":"Dlx2","target":"Arx","value":204},
{"source":"Dlx2","target":"Gad2","value":312},
{"source":"Dlx2","target":"Tubb3","value":288},
{"source":"Dlx2","target":"Nnat","value":420},
{"source":"Dlx2","target":"Dlx5","value":300},
{"source":"Dlx2","target":"Meg3","value":288},
{"source":"Dlx2","target":"Malat1","value":228},
{"source":"Dlx2","target":"Tmsb10","value":228},
{"source":"Stmn2","target":"Sp9","value":288},
{"source":"Stmn2","target":"Dlx2","value":288},
{"source":"Stmn2","target":"H3f3a","value":288},
{"source":"Stmn2","target":"Nrxn3","value":288},
{"source":"Stmn2","target":"Ybx1","value":204},
{"source":"Stmn2","target":"Tuba1a","value":360},
{"source":"Stmn2","target":"Pfn2","value":288},
{"source":"Stmn2","target":"Dlx6os1","value":239},
{"source":"Stmn2","target":"Dlx1","value":288},
{"source":"Stmn2","target":"Gad2","value":204},
{"source":"Stmn2","target":"Tubb3","value":288},
{"source":"Stmn2","target":"Nnat","value":288},
{"source":"Stmn2","target":"Map1b","value":276},
{"source":"Stmn2","target":"Dlx5","value":288},
{"source":"Stmn2","target":"Meg3","value":288},
{"source":"Stmn2","target":"Tmsb10","value":264},
{"source":"H3f3a","target":"Sp9","value":288},
{"source":"H3f3a","target":"Dlx2","value":288},
{"source":"H3f3a","target":"Stmn2","value":288},
{"source":"H3f3a","target":"Nrxn3","value":288},
{"source":"H3f3a","target":"Ybx1","value":204},
{"source":"H3f3a","target":"Tuba1a","value":288},
{"source":"H3f3a","target":"Pfn2","value":288},
{"source":"H3f3a","target":"Dlx6os1","value":239},
{"source":"H3f3a","target":"Dlx1","value":288},
{"source":"H3f3a","target":"Gad2","value":204},
{"source":"H3f3a","target":"Tubb3","value":288},
{"source":"H3f3a","target":"Nnat","value":288},
{"source":"H3f3a","target":"Dlx5","value":288},
{"source":"H3f3a","target":"Meg3","value":288},
{"source":"H3f3a","target":"Tmsb10","value":228},
{"source":"Tubb2a","target":"Dlx2","value":192},
{"source":"Tubb2a","target":"Nrxn3","value":192},
{"source":"Tubb2a","target":"Gad2","value":192},
{"source":"Tubb2a","target":"Nnat","value":192},
{"source":"Nrxn3","target":"Sp9","value":300},
{"source":"Nrxn3","target":"Dlx2","value":420},
{"source":"Nrxn3","target":"Stmn2","value":288},
{"source":"Nrxn3","target":"H3f3a","value":288},
{"source":"Nrxn3","target":"Tubb2a","value":192},
{"source":"Nrxn3","target":"Ybx1","value":336},
{"source":"Nrxn3","target":"Tuba1a","value":288},
{"source":"Nrxn3","target":"Pfn2","value":288},
{"source":"Nrxn3","target":"Dlx6os1","value":239},
{"source":"Nrxn3","target":"Dlx1","value":288},
{"source":"Nrxn3","target":"Arx","value":204},
{"source":"Nrxn3","target":"Gad2","value":312},
{"source":"Nrxn3","target":"Tubb3","value":288},
{"source":"Nrxn3","target":"Nnat","value":420},
{"source":"Nrxn3","target":"Dlx5","value":300},
{"source":"Nrxn3","target":"Meg3","value":288},
{"source":"Nrxn3","target":"Malat1","value":228},
{"source":"Nrxn3","target":"Tmsb10","value":228},
{"source":"Ybx1","target":"Sp9","value":216},
{"source":"Ybx1","target":"Dlx2","value":336},
{"source":"Ybx1","target":"Stmn2","value":204},
{"source":"Ybx1","target":"H3f3a","value":204},
{"source":"Ybx1","target":"Nrxn3","value":336},
{"source":"Ybx1","target":"Tuba1a","value":204},
{"source":"Ybx1","target":"Pfn2","value":204},
{"source":"Ybx1","target":"Dlx1","value":204},
{"source":"Ybx1","target":"Arx","value":204},
{"source":"Ybx1","target":"Gad2","value":240},
{"source":"Ybx1","target":"Tubb3","value":204},
{"source":"Ybx1","target":"Nnat","value":336},
{"source":"Ybx1","target":"Dlx5","value":216},
{"source":"Ybx1","target":"Meg3","value":204},
{"source":"Ybx1","target":"Malat1","value":204},
{"source":"Tuba1a","target":"Neurod6","value":192},
{"source":"Tuba1a","target":"Tsc22d1","value":204},
{"source":"Tuba1a","target":"Id2","value":204},
{"source":"Tuba1a","target":"Sp9","value":288},
{"source":"Tuba1a","target":"Dlx2","value":288},
{"source":"Tuba1a","target":"Stmn2","value":360},
{"source":"Tuba1a","target":"H3f3a","value":288},
{"source":"Tuba1a","target":"Nrxn3","value":288},
{"source":"Tuba1a","target":"Ybx1","value":204},
{"source":"Tuba1a","target":"Pfn2","value":288},
{"source":"Tuba1a","target":"Dlx6os1","value":239},
{"source":"Tuba1a","target":"Dlx1","value":288},
{"source":"Tuba1a","target":"Gad2","value":204},
{"source":"Tuba1a","target":"Tubb3","value":288},
{"source":"Tuba1a","target":"Nnat","value":288},
{"source":"Tuba1a","target":"Map1b","value":288},
{"source":"Tuba1a","target":"Dlx5","value":288},
{"source":"Tuba1a","target":"Meg3","value":288},
{"source":"Tuba1a","target":"Gpm6a","value":204},
{"source":"Tuba1a","target":"Tmsb10","value":228},
{"source":"Tuba1a","target":"Mllt11","value":192},
{"source":"Pfn2","target":"Sp9","value":288},
{"source":"Pfn2","target":"Dlx2","value":288},
{"source":"Pfn2","target":"Stmn2","value":288},
{"source":"Pfn2","target":"H3f3a","value":288},
{"source":"Pfn2","target":"Nrxn3","value":288},
{"source":"Pfn2","target":"Ybx1","value":204},
{"source":"Pfn2","target":"Tuba1a","value":288},
{"source":"Pfn2","target":"Dlx6os1","value":239},
{"source":"Pfn2","target":"Dlx1","value":288},
{"source":"Pfn2","target":"Gad2","value":204},
{"source":"Pfn2","target":"Tubb3","value":288},
{"source":"Pfn2","target":"Nnat","value":288},
{"source":"Pfn2","target":"Dlx5","value":288},
{"source":"Pfn2","target":"Meg3","value":288},
{"source":"Pfn2","target":"Tmsb10","value":228},
{"source":"Dlx6os1","target":"Sp9","value":239},
{"source":"Dlx6os1","target":"Dlx2","value":239},
{"source":"Dlx6os1","target":"Stmn2","value":239},
{"source":"Dlx6os1","target":"H3f3a","value":239},
{"source":"Dlx6os1","target":"Nrxn3","value":239},
{"source":"Dlx6os1","target":"Tuba1a","value":239},
{"source":"Dlx6os1","target":"Pfn2","value":239},
{"source":"Dlx6os1","target":"Dlx1","value":239},
{"source":"Dlx6os1","target":"Tubb3","value":239},
{"source":"Dlx6os1","target":"Nnat","value":239},
{"source":"Dlx6os1","target":"Dlx5","value":239},
{"source":"Dlx6os1","target":"Meg3","value":239},
{"source":"Dlx6os1","target":"Tmsb10","value":191},
{"source":"Dlx1","target":"Sp9","value":288},
{"source":"Dlx1","target":"Dlx2","value":288},
{"source":"Dlx1","target":"Stmn2","value":288},
{"source":"Dlx1","target":"H3f3a","value":288},
{"source":"Dlx1","target":"Nrxn3","value":288},
{"source":"Dlx1","target":"Ybx1","value":204},
{"source":"Dlx1","target":"Tuba1a","value":288},
{"source":"Dlx1","target":"Pfn2","value":288},
{"source":"Dlx1","target":"Dlx6os1","value":239},
{"source":"Dlx1","target":"Gad2","value":204},
{"source":"Dlx1","target":"Tubb3","value":288},
{"source":"Dlx1","target":"Nnat","value":288},
{"source":"Dlx1","target":"Dlx5","value":288},
{"source":"Dlx1","target":"Meg3","value":288},
{"source":"Dlx1","target":"Tmsb10","value":228},
{"source":"Arx","target":"Dlx2","value":204},
{"source":"Arx","target":"Nrxn3","value":204},
{"source":"Arx","target":"Ybx1","value":204},
{"source":"Arx","target":"Nnat","value":204},
{"source":"Gad2","target":"Sp9","value":216},
{"source":"Gad2","target":"Dlx2","value":312},
{"source":"Gad2","target":"Stmn2","value":204},
{"source":"Gad2","target":"H3f3a","value":204},
{"source":"Gad2","target":"Tubb2a","value":192},
{"source":"Gad2","target":"Nrxn3","value":312},
{"source":"Gad2","target":"Ybx1","value":240},
{"source":"Gad2","target":"Tuba1a","value":204},
{"source":"Gad2","target":"Pfn2","value":204},
{"source":"Gad2","target":"Dlx1","value":204},
{"source":"Gad2","target":"Tubb3","value":204},
{"source":"Gad2","target":"Nnat","value":312},
{"source":"Gad2","target":"Dlx5","value":216},
{"source":"Gad2","target":"Meg3","value":204},
{"source":"Gad2","target":"Malat1","value":204},
{"source":"Tubb3","target":"Sp9","value":288},
{"source":"Tubb3","target":"Dlx2","value":288},
{"source":"Tubb3","target":"Stmn2","value":288},
{"source":"Tubb3","target":"H3f3a","value":288},
{"source":"Tubb3","target":"Nrxn3","value":288},
{"source":"Tubb3","target":"Ybx1","value":204},
{"source":"Tubb3","target":"Tuba1a","value":288},
{"source":"Tubb3","target":"Pfn2","value":288},
{"source":"Tubb3","target":"Dlx6os1","value":239},
{"source":"Tubb3","target":"Dlx1","value":288},
{"source":"Tubb3","target":"Gad2","value":204},
{"source":"Tubb3","target":"Nnat","value":288},
{"source":"Tubb3","target":"Dlx5","value":288},
{"source":"Tubb3","target":"Meg3","value":288},
{"source":"Tubb3","target":"Tmsb10","value":228},
{"source":"Nnat","target":"Sp9","value":300},
{"source":"Nnat","target":"Dlx2","value":420},
{"source":"Nnat","target":"Stmn2","value":288},
{"source":"Nnat","target":"H3f3a","value":288},
{"source":"Nnat","target":"Tubb2a","value":192},
{"source":"Nnat","target":"Nrxn3","value":420},
{"source":"Nnat","target":"Ybx1","value":336},
{"source":"Nnat","target":"Tuba1a","value":288},
{"source":"Nnat","target":"Pfn2","value":288},
{"source":"Nnat","target":"Dlx6os1","value":239},
{"source":"Nnat","target":"Dlx1","value":288},
{"source":"Nnat","target":"Arx","value":204},
{"source":"Nnat","target":"Gad2","value":312},
{"source":"Nnat","target":"Tubb3","value":288},
{"source":"Nnat","target":"Dlx5","value":300},
{"source":"Nnat","target":"Meg3","value":288},
{"source":"Nnat","target":"Malat1","value":228},
{"source":"Nnat","target":"Tmsb10","value":228},
{"source":"Map1b","target":"Stmn2","value":276},
{"source":"Map1b","target":"Tuba1a","value":288},
{"source":"Map1b","target":"Mllt11","value":204},
{"source":"Dlx5","target":"Sp9","value":300},
{"source":"Dlx5","target":"Dlx2","value":300},
{"source":"Dlx5","target":"Stmn2","value":288},
{"source":"Dlx5","target":"H3f3a","value":288},
{"source":"Dlx5","target":"Nrxn3","value":300},
{"source":"Dlx5","target":"Ybx1","value":216},
{"source":"Dlx5","target":"Tuba1a","value":288},
{"source":"Dlx5","target":"Pfn2","value":288},
{"source":"Dlx5","target":"Dlx6os1","value":239},
{"source":"Dlx5","target":"Dlx1","value":288},
{"source":"Dlx5","target":"Gad2","value":216},
{"source":"Dlx5","target":"Tubb3","value":288},
{"source":"Dlx5","target":"Nnat","value":300},
{"source":"Dlx5","target":"Meg3","value":288},
{"source":"Dlx5","target":"Tmsb10","value":228},
{"source":"Meg3","target":"Sp9","value":288},
{"source":"Meg3","target":"Dlx2","value":288},
{"source":"Meg3","target":"Stmn2","value":288},
{"source":"Meg3","target":"H3f3a","value":288},
{"source":"Meg3","target":"Nrxn3","value":288},
{"source":"Meg3","target":"Ybx1","value":204},
{"source":"Meg3","target":"Tuba1a","value":288},
{"source":"Meg3","target":"Pfn2","value":288},
{"source":"Meg3","target":"Dlx6os1","value":239},
{"source":"Meg3","target":"Dlx1","value":288},
{"source":"Meg3","target":"Gad2","value":204},
{"source":"Meg3","target":"Tubb3","value":288},
{"source":"Meg3","target":"Nnat","value":288},
{"source":"Meg3","target":"Dlx5","value":288},
{"source":"Meg3","target":"Tmsb10","value":228},
{"source":"Ube2l6","target":"Hba.a2","value":288},
{"source":"Ube2l6","target":"Hbb.bt","value":288},
{"source":"Ube2l6","target":"Hba.a1","value":288},
{"source":"Ube2l6","target":"Alas2","value":288},
{"source":"Ube2l6","target":"Hbb.bs","value":288},
{"source":"Ube2l6","target":"Fech","value":288},
{"source":"Hba.a2","target":"Ube2l6","value":288},
{"source":"Hba.a2","target":"Hbb.bt","value":288},
{"source":"Hba.a2","target":"Hba.a1","value":288},
{"source":"Hba.a2","target":"Alas2","value":288},
{"source":"Hba.a2","target":"Hbb.bs","value":288},
{"source":"Hba.a2","target":"Fech","value":288},
{"source":"Hbb.bt","target":"Ube2l6","value":288},
{"source":"Hbb.bt","target":"Hba.a2","value":288},
{"source":"Hbb.bt","target":"Hba.a1","value":288},
{"source":"Hbb.bt","target":"Alas2","value":288},
{"source":"Hbb.bt","target":"Hbb.bs","value":288},
{"source":"Hbb.bt","target":"Fech","value":288},
{"source":"Hba.a1","target":"Ube2l6","value":288},
{"source":"Hba.a1","target":"Hba.a2","value":288},
{"source":"Hba.a1","target":"Hbb.bt","value":288},
{"source":"Hba.a1","target":"Alas2","value":288},
{"source":"Hba.a1","target":"Hbb.bs","value":288},
{"source":"Hba.a1","target":"Fech","value":288},
{"source":"Alas2","target":"Ube2l6","value":288},
{"source":"Alas2","target":"Hba.a2","value":288},
{"source":"Alas2","target":"Hbb.bt","value":288},
{"source":"Alas2","target":"Hba.a1","value":288},
{"source":"Alas2","target":"Hbb.bs","value":288},
{"source":"Alas2","target":"Fech","value":288},
{"source":"Hbb.bs","target":"Ube2l6","value":288},
{"source":"Hbb.bs","target":"Hba.a2","value":288},
{"source":"Hbb.bs","target":"Hbb.bt","value":288},
{"source":"Hbb.bs","target":"Hba.a1","value":288},
{"source":"Hbb.bs","target":"Alas2","value":288},
{"source":"Hbb.bs","target":"Fech","value":288},
{"source":"Fech","target":"Ube2l6","value":288},
{"source":"Fech","target":"Hba.a2","value":288},
{"source":"Fech","target":"Hbb.bt","value":288},
{"source":"Fech","target":"Hba.a1","value":288},
{"source":"Fech","target":"Alas2","value":288},
{"source":"Fech","target":"Hbb.bs","value":288},
{"source":"Cst3","target":"Dbi","value":300},
{"source":"Cst3","target":"Fabp7","value":300},
{"source":"Cst3","target":"Ptn","value":300},
{"source":"Cst3","target":"Hmgb2","value":264},
{"source":"Cst3","target":"Rpl22l1","value":204},
{"source":"Cst3","target":"Mt3","value":300},
{"source":"Cst3","target":"Slc25a5","value":216},
{"source":"Cst3","target":"Mt1","value":384},
{"source":"Cst3","target":"Vim","value":300},
{"source":"Cst3","target":"H2afv","value":264},
{"source":"Cst3","target":"Ckb","value":300},
{"source":"Cst3","target":"Rpl39","value":228},
{"source":"Cst3","target":"Pfn1","value":384},
{"source":"Cst3","target":"Gnai2","value":216},
{"source":"Cst3","target":"Gng5","value":252},
{"source":"Cst3","target":"Qk","value":216},
{"source":"Cst3","target":"Sparc","value":228},
{"source":"Cst3","target":"Prdx1","value":288},
{"source":"Cst3","target":"Glul","value":216},
{"source":"Cst3","target":"X1810037I17Rik","value":204},
{"source":"Cst3","target":"Cd9","value":252},
{"source":"Dbi","target":"Cst3","value":300},
{"source":"Dbi","target":"Fabp7","value":324},
{"source":"Dbi","target":"Ptn","value":312},
{"source":"Dbi","target":"Hmgb2","value":300},
{"source":"Dbi","target":"Rpl22l1","value":216},
{"source":"Dbi","target":"Mt3","value":312},
{"source":"Dbi","target":"Slc25a5","value":252},
{"source":"Dbi","target":"Mt1","value":300},
{"source":"Dbi","target":"Vim","value":324},
{"source":"Dbi","target":"H2afv","value":300},
{"source":"Dbi","target":"Ckb","value":324},
{"source":"Dbi","target":"Pfn1","value":312},
{"source":"Dbi","target":"Prdx1","value":228},
{"source":"Dbi","target":"X1810037I17Rik","value":216},
{"source":"Fabp7","target":"Cst3","value":300},
{"source":"Fabp7","target":"Dbi","value":324},
{"source":"Fabp7","target":"Ptn","value":312},
{"source":"Fabp7","target":"Hmgb2","value":288},
{"source":"Fabp7","target":"Rpl22l1","value":216},
{"source":"Fabp7","target":"Mt3","value":312},
{"source":"Fabp7","target":"Slc25a5","value":240},
{"source":"Fabp7","target":"Mt1","value":300},
{"source":"Fabp7","target":"Vim","value":324},
{"source":"Fabp7","target":"H2afv","value":276},
{"source":"Fabp7","target":"Ckb","value":324},
{"source":"Fabp7","target":"Pfn1","value":312},
{"source":"Fabp7","target":"Prdx1","value":228},
{"source":"Fabp7","target":"X1810037I17Rik","value":216},
{"source":"Ptn","target":"Cst3","value":300},
{"source":"Ptn","target":"Dbi","value":312},
{"source":"Ptn","target":"Fabp7","value":312},
{"source":"Ptn","target":"Hmgb2","value":276},
{"source":"Ptn","target":"Rpl22l1","value":204},
{"source":"Ptn","target":"Mt3","value":312},
{"source":"Ptn","target":"Slc25a5","value":228},
{"source":"Ptn","target":"Mt1","value":300},
{"source":"Ptn","target":"Vim","value":312},
{"source":"Ptn","target":"H2afv","value":276},
{"source":"Ptn","target":"Ckb","value":312},
{"source":"Ptn","target":"Pfn1","value":312},
{"source":"Ptn","target":"Prdx1","value":216},
{"source":"Ptn","target":"X1810037I17Rik","value":216},
{"source":"Hmgb2","target":"Cst3","value":264},
{"source":"Hmgb2","target":"Dbi","value":300},
{"source":"Hmgb2","target":"Fabp7","value":288},
{"source":"Hmgb2","target":"Ptn","value":276},
{"source":"Hmgb2","target":"Mt3","value":276},
{"source":"Hmgb2","target":"Slc25a5","value":216},
{"source":"Hmgb2","target":"Mt1","value":264},
{"source":"Hmgb2","target":"Vim","value":288},
{"source":"Hmgb2","target":"H2afv","value":408},
{"source":"Hmgb2","target":"Ckb","value":288},
{"source":"Hmgb2","target":"Pfn1","value":276},
{"source":"Hmgb2","target":"Hmgn2","value":192},
{"source":"Hmgb2","target":"Ranbp1","value":264},
{"source":"Hmgb2","target":"Prdx1","value":192},
{"source":"Hmgb2","target":"H2afz","value":300},
{"source":"Hmgb2","target":"Anp32b","value":192},
{"source":"Hmgb2","target":"Ccnd2","value":204},
{"source":"Hmgb2","target":"Ran","value":192},
{"source":"Hmgb2","target":"Hmgb1","value":192},
{"source":"Hmgb2","target":"Ppia","value":228},
{"source":"Rpl22l1","target":"Cst3","value":204},
{"source":"Rpl22l1","target":"Dbi","value":216},
{"source":"Rpl22l1","target":"Fabp7","value":216},
{"source":"Rpl22l1","target":"Ptn","value":204},
{"source":"Rpl22l1","target":"Mt3","value":204},
{"source":"Rpl22l1","target":"Mt1","value":204},
{"source":"Rpl22l1","target":"Vim","value":216},
{"source":"Rpl22l1","target":"Ckb","value":216},
{"source":"Rpl22l1","target":"Pfn1","value":204},
{"source":"Mt3","target":"Cst3","value":300},
{"source":"Mt3","target":"Dbi","value":312},
{"source":"Mt3","target":"Fabp7","value":312},
{"source":"Mt3","target":"Ptn","value":312},
{"source":"Mt3","target":"Hmgb2","value":276},
{"source":"Mt3","target":"Rpl22l1","value":204},
{"source":"Mt3","target":"Slc25a5","value":228},
{"source":"Mt3","target":"Mt1","value":300},
{"source":"Mt3","target":"Vim","value":312},
{"source":"Mt3","target":"H2afv","value":276},
{"source":"Mt3","target":"Ckb","value":312},
{"source":"Mt3","target":"Pfn1","value":312},
{"source":"Mt3","target":"Prdx1","value":216},
{"source":"Mt3","target":"X1810037I17Rik","value":216},
{"source":"Slc25a5","target":"Cst3","value":216},
{"source":"Slc25a5","target":"Dbi","value":252},
{"source":"Slc25a5","target":"Fabp7","value":240},
{"source":"Slc25a5","target":"Ptn","value":228},
{"source":"Slc25a5","target":"Hmgb2","value":216},
{"source":"Slc25a5","target":"Mt3","value":228},
{"source":"Slc25a5","target":"Mt1","value":216},
{"source":"Slc25a5","target":"Vim","value":240},
{"source":"Slc25a5","target":"H2afv","value":204},
{"source":"Slc25a5","target":"Ckb","value":240},
{"source":"Slc25a5","target":"Pfn1","value":228},
{"source":"Mt1","target":"Cst3","value":384},
{"source":"Mt1","target":"Dbi","value":300},
{"source":"Mt1","target":"Fabp7","value":300},
{"source":"Mt1","target":"Ptn","value":300},
{"source":"Mt1","target":"Hmgb2","value":264},
{"source":"Mt1","target":"Rpl22l1","value":204},
{"source":"Mt1","target":"Mt3","value":300},
{"source":"Mt1","target":"Slc25a5","value":216},
{"source":"Mt1","target":"Vim","value":300},
{"source":"Mt1","target":"H2afv","value":264},
{"source":"Mt1","target":"Ckb","value":300},
{"source":"Mt1","target":"Rpl39","value":228},
{"source":"Mt1","target":"Pfn1","value":384},
{"source":"Mt1","target":"Gnai2","value":216},
{"source":"Mt1","target":"Gng5","value":252},
{"source":"Mt1","target":"Qk","value":216},
{"source":"Mt1","target":"Sparc","value":228},
{"source":"Mt1","target":"Prdx1","value":288},
{"source":"Mt1","target":"Glul","value":216},
{"source":"Mt1","target":"X1810037I17Rik","value":204},
{"source":"Mt1","target":"Cd9","value":252},
{"source":"Vim","target":"Cst3","value":300},
{"source":"Vim","target":"Dbi","value":324},
{"source":"Vim","target":"Fabp7","value":324},
{"source":"Vim","target":"Ptn","value":312},
{"source":"Vim","target":"Hmgb2","value":288},
{"source":"Vim","target":"Rpl22l1","value":216},
{"source":"Vim","target":"Mt3","value":312},
{"source":"Vim","target":"Slc25a5","value":240},
{"source":"Vim","target":"Mt1","value":300},
{"source":"Vim","target":"H2afv","value":276},
{"source":"Vim","target":"Ckb","value":324},
{"source":"Vim","target":"Pfn1","value":312},
{"source":"Vim","target":"Prdx1","value":228},
{"source":"Vim","target":"X1810037I17Rik","value":216},
{"source":"H2afv","target":"Cst3","value":264},
{"source":"H2afv","target":"Dbi","value":300},
{"source":"H2afv","target":"Fabp7","value":276},
{"source":"H2afv","target":"Ptn","value":276},
{"source":"H2afv","target":"Hmgb2","value":408},
{"source":"H2afv","target":"Mt3","value":276},
{"source":"H2afv","target":"Slc25a5","value":204},
{"source":"H2afv","target":"Mt1","value":264},
{"source":"H2afv","target":"Vim","value":276},
{"source":"H2afv","target":"Ckb","value":276},
{"source":"H2afv","target":"Pfn1","value":276},
{"source":"H2afv","target":"Ranbp1","value":252},
{"source":"H2afv","target":"H2afz","value":288},
{"source":"H2afv","target":"Ppia","value":216},
{"source":"Ckb","target":"Cst3","value":300},
{"source":"Ckb","target":"Dbi","value":324},
{"source":"Ckb","target":"Fabp7","value":324},
{"source":"Ckb","target":"Ptn","value":312},
{"source":"Ckb","target":"Hmgb2","value":288},
{"source":"Ckb","target":"Rpl22l1","value":216},
{"source":"Ckb","target":"Mt3","value":312},
{"source":"Ckb","target":"Slc25a5","value":240},
{"source":"Ckb","target":"Mt1","value":300},
{"source":"Ckb","target":"Vim","value":324},
{"source":"Ckb","target":"H2afv","value":276},
{"source":"Ckb","target":"Pfn1","value":312},
{"source":"Ckb","target":"Prdx1","value":228},
{"source":"Ckb","target":"X1810037I17Rik","value":216},
{"source":"Rpl39","target":"Cst3","value":228},
{"source":"Rpl39","target":"Mt1","value":228},
{"source":"Rpl39","target":"Pfn1","value":228},
{"source":"Pfn1","target":"Cst3","value":384},
{"source":"Pfn1","target":"Dbi","value":312},
{"source":"Pfn1","target":"Fabp7","value":312},
{"source":"Pfn1","target":"Ptn","value":312},
{"source":"Pfn1","target":"Hmgb2","value":276},
{"source":"Pfn1","target":"Rpl22l1","value":204},
{"source":"Pfn1","target":"Mt3","value":312},
{"source":"Pfn1","target":"Slc25a5","value":228},
{"source":"Pfn1","target":"Mt1","value":384},
{"source":"Pfn1","target":"Vim","value":312},
{"source":"Pfn1","target":"H2afv","value":276},
{"source":"Pfn1","target":"Ckb","value":312},
{"source":"Pfn1","target":"Rpl39","value":228},
{"source":"Pfn1","target":"Gnai2","value":216},
{"source":"Pfn1","target":"Gng5","value":264},
{"source":"Pfn1","target":"Qk","value":216},
{"source":"Pfn1","target":"Sparc","value":228},
{"source":"Pfn1","target":"Prdx1","value":300},
{"source":"Pfn1","target":"Glul","value":216},
{"source":"Pfn1","target":"X1810037I17Rik","value":216},
{"source":"Pfn1","target":"Cd9","value":252},
{"source":"Cd24a","target":"Neurod6","value":336},
{"source":"Cd24a","target":"Sox11","value":264},
{"source":"Cd24a","target":"Neurod2","value":360},
{"source":"Cd24a","target":"Tsc22d1","value":360},
{"source":"Cd24a","target":"Id2","value":240},
{"source":"Cd24a","target":"Gria2","value":204},
{"source":"Cd24a","target":"Igfbpl1","value":192},
{"source":"Cd24a","target":"Sox4","value":228},
{"source":"Cd24a","target":"Gpm6a","value":240},
{"source":"Ppp2r2b","target":"Sox11","value":228},
{"source":"Ppp2r2b","target":"Igfbpl1","value":264},
{"source":"Sox4","target":"Neurod6","value":228},
{"source":"Sox4","target":"Sox11","value":228},
{"source":"Sox4","target":"Neurod2","value":228},
{"source":"Sox4","target":"Tsc22d1","value":228},
{"source":"Sox4","target":"Cd24a","value":228},
{"source":"Gpm6a","target":"Neurod6","value":252},
{"source":"Gpm6a","target":"Neurod2","value":240},
{"source":"Gpm6a","target":"Tsc22d1","value":264},
{"source":"Gpm6a","target":"Id2","value":252},
{"source":"Gpm6a","target":"Gria2","value":204},
{"source":"Gpm6a","target":"Tuba1a","value":204},
{"source":"Gpm6a","target":"Cd24a","value":240},
{"source":"Malat1","target":"Tmsb4x","value":264},
{"source":"Malat1","target":"Gria2","value":228},
{"source":"Malat1","target":"Dlx2","value":228},
{"source":"Malat1","target":"Nrxn3","value":228},
{"source":"Malat1","target":"Ybx1","value":204},
{"source":"Malat1","target":"Gad2","value":204},
{"source":"Malat1","target":"Nnat","value":228},
{"source":"Malat1","target":"mt.Cytb","value":252},
{"source":"Malat1","target":"Tmsb10","value":360},
{"source":"mt.Cytb","target":"Tmsb4x","value":264},
{"source":"mt.Cytb","target":"Gria2","value":240},
{"source":"mt.Cytb","target":"Malat1","value":252},
{"source":"mt.Cytb","target":"Tmsb10","value":252},
{"source":"Tmsb10","target":"Tmsb4x","value":264},
{"source":"Tmsb10","target":"Gria2","value":228},
{"source":"Tmsb10","target":"Sp9","value":228},
{"source":"Tmsb10","target":"Dlx2","value":228},
{"source":"Tmsb10","target":"Stmn2","value":264},
{"source":"Tmsb10","target":"H3f3a","value":228},
{"source":"Tmsb10","target":"Nrxn3","value":228},
{"source":"Tmsb10","target":"Tuba1a","value":228},
{"source":"Tmsb10","target":"Pfn2","value":228},
{"source":"Tmsb10","target":"Dlx6os1","value":191},
{"source":"Tmsb10","target":"Dlx1","value":228},
{"source":"Tmsb10","target":"Tubb3","value":228},
{"source":"Tmsb10","target":"Nnat","value":228},
{"source":"Tmsb10","target":"Dlx5","value":228},
{"source":"Tmsb10","target":"Meg3","value":228},
{"source":"Tmsb10","target":"Malat1","value":360},
{"source":"Tmsb10","target":"mt.Cytb","value":252},
{"source":"Ezr","target":"Igfbpl1","value":216},
{"source":"Ezr","target":"Mdk","value":216},
{"source":"Ezr","target":"Pcp4","value":216},
{"source":"Ezr","target":"Lhx2","value":192},
{"source":"Kif23","target":"Ccnd2","value":216},
{"source":"Mdk","target":"Igfbpl1","value":216},
{"source":"Mdk","target":"Ezr","value":216},
{"source":"Mdk","target":"Pcp4","value":216},
{"source":"Mdk","target":"Lhx2","value":192},
{"source":"Pcp4","target":"Igfbpl1","value":228},
{"source":"Pcp4","target":"Ezr","value":216},
{"source":"Pcp4","target":"Mdk","value":216},
{"source":"Pcp4","target":"Lhx2","value":204},
{"source":"Lhx2","target":"Igfbpl1","value":216},
{"source":"Lhx2","target":"Ezr","value":192},
{"source":"Lhx2","target":"Mdk","value":192},
{"source":"Lhx2","target":"Pcp4","value":204},
{"source":"Hmgn2","target":"Hmgb2","value":192},
{"source":"Hmgn2","target":"Ranbp1","value":192},
{"source":"Hmgn2","target":"H2afz","value":192},
{"source":"Hmgn2","target":"Anp32b","value":192},
{"source":"Hmgn2","target":"Ccnd2","value":192},
{"source":"Hmgn2","target":"Ran","value":192},
{"source":"Hmgn2","target":"Hmgb1","value":192},
{"source":"Maf","target":"Mef2c","value":216},
{"source":"Mllt11","target":"Tuba1a","value":192},
{"source":"Mllt11","target":"Map1b","value":204},
{"source":"Mllt11","target":"Nrp1","value":228},
{"source":"Mef2c","target":"Maf","value":216},
{"source":"Nrp1","target":"Mllt11","value":228},
{"source":"Gnai2","target":"Cst3","value":216},
{"source":"Gnai2","target":"Mt1","value":216},
{"source":"Gnai2","target":"Pfn1","value":216},
{"source":"Gnai2","target":"Gng5","value":216},
{"source":"Gnai2","target":"Qk","value":216},
{"source":"Gnai2","target":"Sparc","value":216},
{"source":"Gnai2","target":"Prdx1","value":216},
{"source":"Gnai2","target":"Glul","value":216},
{"source":"Gnai2","target":"Cd9","value":216},
{"source":"Gng5","target":"Cst3","value":252},
{"source":"Gng5","target":"Mt1","value":252},
{"source":"Gng5","target":"Pfn1","value":264},
{"source":"Gng5","target":"Gnai2","value":216},
{"source":"Gng5","target":"Qk","value":216},
{"source":"Gng5","target":"Sparc","value":228},
{"source":"Gng5","target":"Prdx1","value":264},
{"source":"Gng5","target":"Glul","value":216},
{"source":"Gng5","target":"Cd9","value":252},
{"source":"Qk","target":"Cst3","value":216},
{"source":"Qk","target":"Mt1","value":216},
{"source":"Qk","target":"Pfn1","value":216},
{"source":"Qk","target":"Gnai2","value":216},
{"source":"Qk","target":"Gng5","value":216},
{"source":"Qk","target":"Sparc","value":216},
{"source":"Qk","target":"Prdx1","value":216},
{"source":"Qk","target":"Glul","value":216},
{"source":"Qk","target":"Cd9","value":216},
{"source":"Sparc","target":"Cst3","value":228},
{"source":"Sparc","target":"Mt1","value":228},
{"source":"Sparc","target":"Pfn1","value":228},
{"source":"Sparc","target":"Gnai2","value":216},
{"source":"Sparc","target":"Gng5","value":228},
{"source":"Sparc","target":"Qk","value":216},
{"source":"Sparc","target":"Prdx1","value":228},
{"source":"Sparc","target":"Glul","value":216},
{"source":"Sparc","target":"Cd9","value":228},
{"source":"Ranbp1","target":"Hmgb2","value":264},
{"source":"Ranbp1","target":"H2afv","value":252},
{"source":"Ranbp1","target":"Hmgn2","value":192},
{"source":"Ranbp1","target":"H2afz","value":264},
{"source":"Ranbp1","target":"Anp32b","value":192},
{"source":"Ranbp1","target":"Ccnd2","value":192},
{"source":"Ranbp1","target":"Ran","value":192},
{"source":"Ranbp1","target":"Hmgb1","value":192},
{"source":"Ranbp1","target":"Ppia","value":192},
{"source":"Prdx1","target":"Cst3","value":288},
{"source":"Prdx1","target":"Dbi","value":228},
{"source":"Prdx1","target":"Fabp7","value":228},
{"source":"Prdx1","target":"Ptn","value":216},
{"source":"Prdx1","target":"Hmgb2","value":192},
{"source":"Prdx1","target":"Mt3","value":216},
{"source":"Prdx1","target":"Mt1","value":288},
{"source":"Prdx1","target":"Vim","value":228},
{"source":"Prdx1","target":"Ckb","value":228},
{"source":"Prdx1","target":"Pfn1","value":300},
{"source":"Prdx1","target":"Gnai2","value":216},
{"source":"Prdx1","target":"Gng5","value":264},
{"source":"Prdx1","target":"Qk","value":216},
{"source":"Prdx1","target":"Sparc","value":228},
{"source":"Prdx1","target":"Glul","value":216},
{"source":"Prdx1","target":"X1810037I17Rik","value":216},
{"source":"Prdx1","target":"Cd9","value":252},
{"source":"H2afz","target":"Hmgb2","value":300},
{"source":"H2afz","target":"H2afv","value":288},
{"source":"H2afz","target":"Hmgn2","value":192},
{"source":"H2afz","target":"Ranbp1","value":264},
{"source":"H2afz","target":"Anp32b","value":192},
{"source":"H2afz","target":"Ccnd2","value":192},
{"source":"H2afz","target":"Ran","value":192},
{"source":"H2afz","target":"Hmgb1","value":192},
{"source":"H2afz","target":"Ppia","value":204},
{"source":"Glul","target":"Cst3","value":216},
{"source":"Glul","target":"Mt1","value":216},
{"source":"Glul","target":"Pfn1","value":216},
{"source":"Glul","target":"Gnai2","value":216},
{"source":"Glul","target":"Gng5","value":216},
{"source":"Glul","target":"Qk","value":216},
{"source":"Glul","target":"Sparc","value":216},
{"source":"Glul","target":"Prdx1","value":216},
{"source":"Glul","target":"Cd9","value":216},
{"source":"X1810037I17Rik","target":"Cst3","value":204},
{"source":"X1810037I17Rik","target":"Dbi","value":216},
{"source":"X1810037I17Rik","target":"Fabp7","value":216},
{"source":"X1810037I17Rik","target":"Ptn","value":216},
{"source":"X1810037I17Rik","target":"Mt3","value":216},
{"source":"X1810037I17Rik","target":"Mt1","value":204},
{"source":"X1810037I17Rik","target":"Vim","value":216},
{"source":"X1810037I17Rik","target":"Ckb","value":216},
{"source":"X1810037I17Rik","target":"Pfn1","value":216},
{"source":"X1810037I17Rik","target":"Prdx1","value":216},
{"source":"Cd9","target":"Cst3","value":252},
{"source":"Cd9","target":"Mt1","value":252},
{"source":"Cd9","target":"Pfn1","value":252},
{"source":"Cd9","target":"Gnai2","value":216},
{"source":"Cd9","target":"Gng5","value":252},
{"source":"Cd9","target":"Qk","value":216},
{"source":"Cd9","target":"Sparc","value":228},
{"source":"Cd9","target":"Prdx1","value":252},
{"source":"Cd9","target":"Glul","value":216},
{"source":"Anp32b","target":"Hmgb2","value":192},
{"source":"Anp32b","target":"Hmgn2","value":192},
{"source":"Anp32b","target":"Ranbp1","value":192},
{"source":"Anp32b","target":"H2afz","value":192},
{"source":"Anp32b","target":"Ccnd2","value":192},
{"source":"Anp32b","target":"Ran","value":192},
{"source":"Anp32b","target":"Hmgb1","value":192},
{"source":"Ccnd2","target":"Hmgb2","value":204},
{"source":"Ccnd2","target":"Kif23","value":216},
{"source":"Ccnd2","target":"Hmgn2","value":192},
{"source":"Ccnd2","target":"Ranbp1","value":192},
{"source":"Ccnd2","target":"H2afz","value":192},
{"source":"Ccnd2","target":"Anp32b","value":192},
{"source":"Ccnd2","target":"Ran","value":192},
{"source":"Ccnd2","target":"Hmgb1","value":192},
{"source":"Pmf1","target":"Clic1","value":240},
{"source":"Clic1","target":"Pmf1","value":240},
{"source":"Ran","target":"Hmgb2","value":192},
{"source":"Ran","target":"Hmgn2","value":192},
{"source":"Ran","target":"Ranbp1","value":192},
{"source":"Ran","target":"H2afz","value":192},
{"source":"Ran","target":"Anp32b","value":192},
{"source":"Ran","target":"Ccnd2","value":192},
{"source":"Ran","target":"Hmgb1","value":192},
{"source":"Hmgb1","target":"Hmgb2","value":192},
{"source":"Hmgb1","target":"Hmgn2","value":192},
{"source":"Hmgb1","target":"Ranbp1","value":192},
{"source":"Hmgb1","target":"H2afz","value":192},
{"source":"Hmgb1","target":"Anp32b","value":192},
{"source":"Hmgb1","target":"Ccnd2","value":192},
{"source":"Hmgb1","target":"Ran","value":192},
{"source":"Ppia","target":"Hmgb2","value":228},
{"source":"Ppia","target":"H2afv","value":216},
{"source":"Ppia","target":"Ranbp1","value":192},
{"source":"Ppia","target":"H2afz","value":204}
]}