{"nodes": [
{"id": "CRABP2", "group":4},
{"id": "ALCAM", "group":7},
{"id": "HMG20B", "group":5},
{"id": "FABP4", "group":5},
{"id": "IL1RN", "group":7},
{"id": "LPL", "group":6},
{"id": "TIMP3", "group":7},
{"id": "ATP5G3", "group":3},
{"id": "MFSD12", "group":5},
{"id": "FUCA1", "group":3},
{"id": "CYP27A1", "group":3},
{"id": "GRN", "group":5},
{"id": "BASP1", "group":6},
{"id": "TKT", "group":4},
{"id": "TNFAIP2", "group":3},
{"id": "NINJ1", "group":4},
{"id": "CLEC4E", "group":4},
{"id": "PTAFR", "group":3},
{"id": "ALDH2", "group":3},
{"id": "MARCKS", "group":2},
{"id": "LYZ", "group":3},
{"id": "SAT1", "group":4},
{"id": "GRINA", "group":1},
{"id": "TNFAIP6", "group":4},
{"id": "SOD2", "group":6},
{"id": "SLC43A2", "group":3},
{"id": "SPARC", "group":7},
{"id": "CSTA", "group":3},
{"id": "CTSS", "group":7},
{"id": "HCK", "group":3},
{"id": "PILRA", "group":4},
{"id": "SNX10", "group":2},
{"id": "MMP14", "group":6},
{"id": "GLRX", "group":1},
{"id": "PSAP", "group":6},
{"id": "C15orf48", "group":3},
{"id": "DRAM1", "group":7},
{"id": "RILPL2", "group":7},
{"id": "IFNGR1", "group":3},
{"id": "KYNU", "group":6},
{"id": "NCOA4", "group":1},
{"id": "HLA.B", "group":5},
{"id": "HLA.A", "group":7},
{"id": "SLC2A6", "group":5},
{"id": "OAZ2", "group":7},
{"id": "SLAMF7", "group":6},
{"id": "CSTB", "group":4},
{"id": "PIM3", "group":5},
{"id": "PHLDA1", "group":1},
{"id": "LIMS1", "group":2},
{"id": "RPS6", "group":3},
{"id": "PLA2G7", "group":4},
{"id": "PTPRE", "group":1},
{"id": "CAMK1", "group":6},
{"id": "MMP7", "group":6},
{"id": "DMXL2", "group":7},
{"id": "NUPR1", "group":3},
{"id": "DNASE2", "group":2},
{"id": "CYBB", "group":1},
{"id": "PRDX1", "group":4},
{"id": "SLC7A11", "group":5},
{"id": "CD86", "group":4}
],"links": [
{"source":"CRABP2","target":"LPL","value":7},
{"source":"CRABP2","target":"ATP5G3","value":7},
{"source":"ALCAM","target":"HMG20B","value":11},
{"source":"ALCAM","target":"FABP4","value":11},
{"source":"ALCAM","target":"IL1RN","value":8},
{"source":"ALCAM","target":"LPL","value":8},
{"source":"ALCAM","target":"TIMP3","value":11},
{"source":"ALCAM","target":"MFSD12","value":11},
{"source":"ALCAM","target":"PIM3","value":7},
{"source":"ALCAM","target":"PHLDA1","value":11},
{"source":"ALCAM","target":"LIMS1","value":7},
{"source":"ALCAM","target":"RPS6","value":10},
{"source":"ALCAM","target":"PLA2G7","value":10},
{"source":"ALCAM","target":"PTPRE","value":10},
{"source":"ALCAM","target":"CAMK1","value":7},
{"source":"ALCAM","target":"MMP7","value":7},
{"source":"HMG20B","target":"ALCAM","value":11},
{"source":"HMG20B","target":"FABP4","value":11},
{"source":"HMG20B","target":"IL1RN","value":8},
{"source":"HMG20B","target":"LPL","value":8},
{"source":"HMG20B","target":"TIMP3","value":11},
{"source":"HMG20B","target":"MFSD12","value":12},
{"source":"HMG20B","target":"PIM3","value":7},
{"source":"HMG20B","target":"PHLDA1","value":10},
{"source":"HMG20B","target":"LIMS1","value":7},
{"source":"HMG20B","target":"RPS6","value":9},
{"source":"HMG20B","target":"PLA2G7","value":10},
{"source":"HMG20B","target":"PTPRE","value":9},
{"source":"HMG20B","target":"CAMK1","value":7},
{"source":"HMG20B","target":"MMP7","value":7},
{"source":"FABP4","target":"ALCAM","value":11},
{"source":"FABP4","target":"HMG20B","value":11},
{"source":"FABP4","target":"IL1RN","value":8},
{"source":"FABP4","target":"LPL","value":8},
{"source":"FABP4","target":"TIMP3","value":11},
{"source":"FABP4","target":"MFSD12","value":11},
{"source":"FABP4","target":"PIM3","value":7},
{"source":"FABP4","target":"PHLDA1","value":10},
{"source":"FABP4","target":"LIMS1","value":7},
{"source":"FABP4","target":"RPS6","value":9},
{"source":"FABP4","target":"PLA2G7","value":9},
{"source":"FABP4","target":"PTPRE","value":9},
{"source":"FABP4","target":"CAMK1","value":7},
{"source":"FABP4","target":"MMP7","value":7},
{"source":"IL1RN","target":"ALCAM","value":8},
{"source":"IL1RN","target":"HMG20B","value":8},
{"source":"IL1RN","target":"FABP4","value":8},
{"source":"IL1RN","target":"LPL","value":11},
{"source":"IL1RN","target":"TIMP3","value":8},
{"source":"IL1RN","target":"MFSD12","value":8},
{"source":"IL1RN","target":"PHLDA1","value":7},
{"source":"IL1RN","target":"LIMS1","value":7},
{"source":"IL1RN","target":"CAMK1","value":7},
{"source":"IL1RN","target":"MMP7","value":7},
{"source":"LPL","target":"CRABP2","value":7},
{"source":"LPL","target":"ALCAM","value":8},
{"source":"LPL","target":"HMG20B","value":8},
{"source":"LPL","target":"FABP4","value":8},
{"source":"LPL","target":"IL1RN","value":11},
{"source":"LPL","target":"TIMP3","value":8},
{"source":"LPL","target":"ATP5G3","value":7},
{"source":"LPL","target":"MFSD12","value":8},
{"source":"LPL","target":"PHLDA1","value":7},
{"source":"LPL","target":"LIMS1","value":7},
{"source":"LPL","target":"CAMK1","value":7},
{"source":"LPL","target":"MMP7","value":7},
{"source":"TIMP3","target":"ALCAM","value":11},
{"source":"TIMP3","target":"HMG20B","value":11},
{"source":"TIMP3","target":"FABP4","value":11},
{"source":"TIMP3","target":"IL1RN","value":8},
{"source":"TIMP3","target":"LPL","value":8},
{"source":"TIMP3","target":"MFSD12","value":11},
{"source":"TIMP3","target":"PIM3","value":7},
{"source":"TIMP3","target":"PHLDA1","value":10},
{"source":"TIMP3","target":"LIMS1","value":7},
{"source":"TIMP3","target":"RPS6","value":9},
{"source":"TIMP3","target":"PLA2G7","value":9},
{"source":"TIMP3","target":"PTPRE","value":9},
{"source":"TIMP3","target":"CAMK1","value":7},
{"source":"TIMP3","target":"MMP7","value":7},
{"source":"ATP5G3","target":"CRABP2","value":7},
{"source":"ATP5G3","target":"LPL","value":7},
{"source":"ATP5G3","target":"CSTB","value":10},
{"source":"MFSD12","target":"ALCAM","value":11},
{"source":"MFSD12","target":"HMG20B","value":12},
{"source":"MFSD12","target":"FABP4","value":11},
{"source":"MFSD12","target":"IL1RN","value":8},
{"source":"MFSD12","target":"LPL","value":8},
{"source":"MFSD12","target":"TIMP3","value":11},
{"source":"MFSD12","target":"PIM3","value":7},
{"source":"MFSD12","target":"PHLDA1","value":10},
{"source":"MFSD12","target":"LIMS1","value":7},
{"source":"MFSD12","target":"RPS6","value":9},
{"source":"MFSD12","target":"PLA2G7","value":10},
{"source":"MFSD12","target":"PTPRE","value":9},
{"source":"MFSD12","target":"CAMK1","value":7},
{"source":"MFSD12","target":"MMP7","value":7},
{"source":"FUCA1","target":"CYP27A1","value":10},
{"source":"FUCA1","target":"GRN","value":10},
{"source":"FUCA1","target":"TKT","value":10},
{"source":"FUCA1","target":"TNFAIP2","value":10},
{"source":"FUCA1","target":"NINJ1","value":8},
{"source":"FUCA1","target":"CLEC4E","value":10},
{"source":"FUCA1","target":"PTAFR","value":10},
{"source":"FUCA1","target":"ALDH2","value":10},
{"source":"FUCA1","target":"MARCKS","value":10},
{"source":"FUCA1","target":"LYZ","value":10},
{"source":"FUCA1","target":"GRINA","value":10},
{"source":"FUCA1","target":"TNFAIP6","value":10},
{"source":"FUCA1","target":"SOD2","value":10},
{"source":"FUCA1","target":"SPARC","value":10},
{"source":"FUCA1","target":"CTSS","value":9},
{"source":"FUCA1","target":"HCK","value":10},
{"source":"FUCA1","target":"PILRA","value":10},
{"source":"FUCA1","target":"SNX10","value":10},
{"source":"FUCA1","target":"MMP14","value":9},
{"source":"FUCA1","target":"GLRX","value":10},
{"source":"FUCA1","target":"PSAP","value":10},
{"source":"FUCA1","target":"C15orf48","value":10},
{"source":"FUCA1","target":"DRAM1","value":10},
{"source":"FUCA1","target":"RILPL2","value":8},
{"source":"FUCA1","target":"IFNGR1","value":10},
{"source":"FUCA1","target":"KYNU","value":10},
{"source":"FUCA1","target":"NCOA4","value":10},
{"source":"FUCA1","target":"HLA.B","value":10},
{"source":"FUCA1","target":"HLA.A","value":9},
{"source":"FUCA1","target":"SLC2A6","value":10},
{"source":"FUCA1","target":"OAZ2","value":8},
{"source":"FUCA1","target":"DMXL2","value":7},
{"source":"FUCA1","target":"NUPR1","value":9},
{"source":"FUCA1","target":"DNASE2","value":9},
{"source":"FUCA1","target":"CYBB","value":7},
{"source":"CYP27A1","target":"FUCA1","value":10},
{"source":"CYP27A1","target":"GRN","value":11},
{"source":"CYP27A1","target":"TKT","value":10},
{"source":"CYP27A1","target":"TNFAIP2","value":11},
{"source":"CYP27A1","target":"NINJ1","value":9},
{"source":"CYP27A1","target":"CLEC4E","value":11},
{"source":"CYP27A1","target":"PTAFR","value":11},
{"source":"CYP27A1","target":"ALDH2","value":11},
{"source":"CYP27A1","target":"MARCKS","value":11},
{"source":"CYP27A1","target":"LYZ","value":11},
{"source":"CYP27A1","target":"GRINA","value":11},
{"source":"CYP27A1","target":"TNFAIP6","value":11},
{"source":"CYP27A1","target":"SOD2","value":11},
{"source":"CYP27A1","target":"SPARC","value":11},
{"source":"CYP27A1","target":"CTSS","value":10},
{"source":"CYP27A1","target":"HCK","value":11},
{"source":"CYP27A1","target":"PILRA","value":11},
{"source":"CYP27A1","target":"SNX10","value":11},
{"source":"CYP27A1","target":"MMP14","value":10},
{"source":"CYP27A1","target":"GLRX","value":11},
{"source":"CYP27A1","target":"PSAP","value":11},
{"source":"CYP27A1","target":"C15orf48","value":11},
{"source":"CYP27A1","target":"DRAM1","value":11},
{"source":"CYP27A1","target":"RILPL2","value":8},
{"source":"CYP27A1","target":"IFNGR1","value":11},
{"source":"CYP27A1","target":"KYNU","value":11},
{"source":"CYP27A1","target":"NCOA4","value":11},
{"source":"CYP27A1","target":"HLA.B","value":11},
{"source":"CYP27A1","target":"HLA.A","value":10},
{"source":"CYP27A1","target":"SLC2A6","value":11},
{"source":"CYP27A1","target":"OAZ2","value":9},
{"source":"CYP27A1","target":"DMXL2","value":8},
{"source":"CYP27A1","target":"NUPR1","value":9},
{"source":"CYP27A1","target":"DNASE2","value":9},
{"source":"CYP27A1","target":"CYBB","value":7},
{"source":"GRN","target":"FUCA1","value":10},
{"source":"GRN","target":"CYP27A1","value":11},
{"source":"GRN","target":"TKT","value":10},
{"source":"GRN","target":"TNFAIP2","value":11},
{"source":"GRN","target":"NINJ1","value":9},
{"source":"GRN","target":"CLEC4E","value":11},
{"source":"GRN","target":"PTAFR","value":11},
{"source":"GRN","target":"ALDH2","value":11},
{"source":"GRN","target":"MARCKS","value":11},
{"source":"GRN","target":"LYZ","value":11},
{"source":"GRN","target":"GRINA","value":11},
{"source":"GRN","target":"TNFAIP6","value":11},
{"source":"GRN","target":"SOD2","value":11},
{"source":"GRN","target":"SPARC","value":11},
{"source":"GRN","target":"CTSS","value":10},
{"source":"GRN","target":"HCK","value":11},
{"source":"GRN","target":"PILRA","value":11},
{"source":"GRN","target":"SNX10","value":11},
{"source":"GRN","target":"MMP14","value":10},
{"source":"GRN","target":"GLRX","value":11},
{"source":"GRN","target":"PSAP","value":11},
{"source":"GRN","target":"C15orf48","value":11},
{"source":"GRN","target":"DRAM1","value":11},
{"source":"GRN","target":"RILPL2","value":8},
{"source":"GRN","target":"IFNGR1","value":11},
{"source":"GRN","target":"KYNU","value":11},
{"source":"GRN","target":"NCOA4","value":11},
{"source":"GRN","target":"HLA.B","value":11},
{"source":"GRN","target":"HLA.A","value":10},
{"source":"GRN","target":"SLC2A6","value":11},
{"source":"GRN","target":"OAZ2","value":9},
{"source":"GRN","target":"DMXL2","value":8},
{"source":"GRN","target":"NUPR1","value":9},
{"source":"GRN","target":"DNASE2","value":9},
{"source":"GRN","target":"CYBB","value":7},
{"source":"BASP1","target":"SAT1","value":7},
{"source":"BASP1","target":"SOD2","value":7},
{"source":"BASP1","target":"CSTA","value":7},
{"source":"BASP1","target":"NCOA4","value":7},
{"source":"BASP1","target":"SLAMF7","value":7},
{"source":"TKT","target":"FUCA1","value":10},
{"source":"TKT","target":"CYP27A1","value":10},
{"source":"TKT","target":"GRN","value":10},
{"source":"TKT","target":"TNFAIP2","value":10},
{"source":"TKT","target":"NINJ1","value":8},
{"source":"TKT","target":"CLEC4E","value":10},
{"source":"TKT","target":"PTAFR","value":10},
{"source":"TKT","target":"ALDH2","value":10},
{"source":"TKT","target":"MARCKS","value":10},
{"source":"TKT","target":"LYZ","value":10},
{"source":"TKT","target":"GRINA","value":10},
{"source":"TKT","target":"TNFAIP6","value":10},
{"source":"TKT","target":"SOD2","value":10},
{"source":"TKT","target":"SPARC","value":10},
{"source":"TKT","target":"CTSS","value":9},
{"source":"TKT","target":"HCK","value":10},
{"source":"TKT","target":"PILRA","value":10},
{"source":"TKT","target":"SNX10","value":10},
{"source":"TKT","target":"MMP14","value":9},
{"source":"TKT","target":"GLRX","value":10},
{"source":"TKT","target":"PSAP","value":10},
{"source":"TKT","target":"C15orf48","value":10},
{"source":"TKT","target":"DRAM1","value":10},
{"source":"TKT","target":"RILPL2","value":8},
{"source":"TKT","target":"IFNGR1","value":10},
{"source":"TKT","target":"KYNU","value":10},
{"source":"TKT","target":"NCOA4","value":10},
{"source":"TKT","target":"HLA.B","value":10},
{"source":"TKT","target":"HLA.A","value":9},
{"source":"TKT","target":"SLC2A6","value":10},
{"source":"TKT","target":"OAZ2","value":8},
{"source":"TKT","target":"DMXL2","value":7},
{"source":"TKT","target":"NUPR1","value":9},
{"source":"TKT","target":"DNASE2","value":9},
{"source":"TKT","target":"CYBB","value":7},
{"source":"TNFAIP2","target":"FUCA1","value":10},
{"source":"TNFAIP2","target":"CYP27A1","value":11},
{"source":"TNFAIP2","target":"GRN","value":11},
{"source":"TNFAIP2","target":"TKT","value":10},
{"source":"TNFAIP2","target":"NINJ1","value":9},
{"source":"TNFAIP2","target":"CLEC4E","value":11},
{"source":"TNFAIP2","target":"PTAFR","value":11},
{"source":"TNFAIP2","target":"ALDH2","value":11},
{"source":"TNFAIP2","target":"MARCKS","value":11},
{"source":"TNFAIP2","target":"LYZ","value":11},
{"source":"TNFAIP2","target":"GRINA","value":11},
{"source":"TNFAIP2","target":"TNFAIP6","value":11},
{"source":"TNFAIP2","target":"SOD2","value":11},
{"source":"TNFAIP2","target":"SPARC","value":11},
{"source":"TNFAIP2","target":"CTSS","value":10},
{"source":"TNFAIP2","target":"HCK","value":11},
{"source":"TNFAIP2","target":"PILRA","value":11},
{"source":"TNFAIP2","target":"SNX10","value":11},
{"source":"TNFAIP2","target":"MMP14","value":10},
{"source":"TNFAIP2","target":"GLRX","value":11},
{"source":"TNFAIP2","target":"PSAP","value":11},
{"source":"TNFAIP2","target":"C15orf48","value":11},
{"source":"TNFAIP2","target":"DRAM1","value":11},
{"source":"TNFAIP2","target":"RILPL2","value":8},
{"source":"TNFAIP2","target":"IFNGR1","value":11},
{"source":"TNFAIP2","target":"KYNU","value":11},
{"source":"TNFAIP2","target":"NCOA4","value":11},
{"source":"TNFAIP2","target":"HLA.B","value":11},
{"source":"TNFAIP2","target":"HLA.A","value":10},
{"source":"TNFAIP2","target":"SLC2A6","value":11},
{"source":"TNFAIP2","target":"OAZ2","value":9},
{"source":"TNFAIP2","target":"DMXL2","value":8},
{"source":"TNFAIP2","target":"NUPR1","value":9},
{"source":"TNFAIP2","target":"DNASE2","value":9},
{"source":"TNFAIP2","target":"CYBB","value":7},
{"source":"NINJ1","target":"FUCA1","value":8},
{"source":"NINJ1","target":"CYP27A1","value":9},
{"source":"NINJ1","target":"GRN","value":9},
{"source":"NINJ1","target":"TKT","value":8},
{"source":"NINJ1","target":"TNFAIP2","value":9},
{"source":"NINJ1","target":"CLEC4E","value":9},
{"source":"NINJ1","target":"PTAFR","value":9},
{"source":"NINJ1","target":"ALDH2","value":9},
{"source":"NINJ1","target":"MARCKS","value":10},
{"source":"NINJ1","target":"LYZ","value":9},
{"source":"NINJ1","target":"GRINA","value":9},
{"source":"NINJ1","target":"TNFAIP6","value":9},
{"source":"NINJ1","target":"SOD2","value":9},
{"source":"NINJ1","target":"SPARC","value":9},
{"source":"NINJ1","target":"CTSS","value":9},
{"source":"NINJ1","target":"HCK","value":9},
{"source":"NINJ1","target":"PILRA","value":9},
{"source":"NINJ1","target":"SNX10","value":9},
{"source":"NINJ1","target":"MMP14","value":9},
{"source":"NINJ1","target":"GLRX","value":10},
{"source":"NINJ1","target":"PSAP","value":9},
{"source":"NINJ1","target":"C15orf48","value":9},
{"source":"NINJ1","target":"DRAM1","value":9},
{"source":"NINJ1","target":"IFNGR1","value":9},
{"source":"NINJ1","target":"KYNU","value":9},
{"source":"NINJ1","target":"NCOA4","value":9},
{"source":"NINJ1","target":"HLA.B","value":9},
{"source":"NINJ1","target":"HLA.A","value":9},
{"source":"NINJ1","target":"SLC2A6","value":9},
{"source":"NINJ1","target":"OAZ2","value":7},
{"source":"NINJ1","target":"DMXL2","value":8},
{"source":"NINJ1","target":"NUPR1","value":7},
{"source":"NINJ1","target":"DNASE2","value":7},
{"source":"CLEC4E","target":"FUCA1","value":10},
{"source":"CLEC4E","target":"CYP27A1","value":11},
{"source":"CLEC4E","target":"GRN","value":11},
{"source":"CLEC4E","target":"TKT","value":10},
{"source":"CLEC4E","target":"TNFAIP2","value":11},
{"source":"CLEC4E","target":"NINJ1","value":9},
{"source":"CLEC4E","target":"PTAFR","value":11},
{"source":"CLEC4E","target":"ALDH2","value":11},
{"source":"CLEC4E","target":"MARCKS","value":11},
{"source":"CLEC4E","target":"LYZ","value":11},
{"source":"CLEC4E","target":"GRINA","value":11},
{"source":"CLEC4E","target":"TNFAIP6","value":11},
{"source":"CLEC4E","target":"SOD2","value":11},
{"source":"CLEC4E","target":"SPARC","value":11},
{"source":"CLEC4E","target":"CTSS","value":10},
{"source":"CLEC4E","target":"HCK","value":11},
{"source":"CLEC4E","target":"PILRA","value":11},
{"source":"CLEC4E","target":"SNX10","value":11},
{"source":"CLEC4E","target":"MMP14","value":10},
{"source":"CLEC4E","target":"GLRX","value":11},
{"source":"CLEC4E","target":"PSAP","value":11},
{"source":"CLEC4E","target":"C15orf48","value":11},
{"source":"CLEC4E","target":"DRAM1","value":11},
{"source":"CLEC4E","target":"RILPL2","value":8},
{"source":"CLEC4E","target":"IFNGR1","value":11},
{"source":"CLEC4E","target":"KYNU","value":11},
{"source":"CLEC4E","target":"NCOA4","value":11},
{"source":"CLEC4E","target":"HLA.B","value":11},
{"source":"CLEC4E","target":"HLA.A","value":10},
{"source":"CLEC4E","target":"SLC2A6","value":11},
{"source":"CLEC4E","target":"OAZ2","value":9},
{"source":"CLEC4E","target":"DMXL2","value":8},
{"source":"CLEC4E","target":"NUPR1","value":9},
{"source":"CLEC4E","target":"DNASE2","value":9},
{"source":"CLEC4E","target":"CYBB","value":7},
{"source":"PTAFR","target":"FUCA1","value":10},
{"source":"PTAFR","target":"CYP27A1","value":11},
{"source":"PTAFR","target":"GRN","value":11},
{"source":"PTAFR","target":"TKT","value":10},
{"source":"PTAFR","target":"TNFAIP2","value":11},
{"source":"PTAFR","target":"NINJ1","value":9},
{"source":"PTAFR","target":"CLEC4E","value":11},
{"source":"PTAFR","target":"ALDH2","value":11},
{"source":"PTAFR","target":"MARCKS","value":11},
{"source":"PTAFR","target":"LYZ","value":11},
{"source":"PTAFR","target":"GRINA","value":11},
{"source":"PTAFR","target":"TNFAIP6","value":11},
{"source":"PTAFR","target":"SOD2","value":11},
{"source":"PTAFR","target":"SPARC","value":11},
{"source":"PTAFR","target":"CTSS","value":10},
{"source":"PTAFR","target":"HCK","value":11},
{"source":"PTAFR","target":"PILRA","value":11},
{"source":"PTAFR","target":"SNX10","value":11},
{"source":"PTAFR","target":"MMP14","value":10},
{"source":"PTAFR","target":"GLRX","value":11},
{"source":"PTAFR","target":"PSAP","value":11},
{"source":"PTAFR","target":"C15orf48","value":11},
{"source":"PTAFR","target":"DRAM1","value":11},
{"source":"PTAFR","target":"RILPL2","value":8},
{"source":"PTAFR","target":"IFNGR1","value":11},
{"source":"PTAFR","target":"KYNU","value":11},
{"source":"PTAFR","target":"NCOA4","value":11},
{"source":"PTAFR","target":"HLA.B","value":11},
{"source":"PTAFR","target":"HLA.A","value":10},
{"source":"PTAFR","target":"SLC2A6","value":11},
{"source":"PTAFR","target":"OAZ2","value":9},
{"source":"PTAFR","target":"DMXL2","value":8},
{"source":"PTAFR","target":"NUPR1","value":9},
{"source":"PTAFR","target":"DNASE2","value":9},
{"source":"PTAFR","target":"CYBB","value":7},
{"source":"ALDH2","target":"FUCA1","value":10},
{"source":"ALDH2","target":"CYP27A1","value":11},
{"source":"ALDH2","target":"GRN","value":11},
{"source":"ALDH2","target":"TKT","value":10},
{"source":"ALDH2","target":"TNFAIP2","value":11},
{"source":"ALDH2","target":"NINJ1","value":9},
{"source":"ALDH2","target":"CLEC4E","value":11},
{"source":"ALDH2","target":"PTAFR","value":11},
{"source":"ALDH2","target":"MARCKS","value":11},
{"source":"ALDH2","target":"LYZ","value":11},
{"source":"ALDH2","target":"GRINA","value":11},
{"source":"ALDH2","target":"TNFAIP6","value":11},
{"source":"ALDH2","target":"SOD2","value":11},
{"source":"ALDH2","target":"SPARC","value":11},
{"source":"ALDH2","target":"CTSS","value":10},
{"source":"ALDH2","target":"HCK","value":11},
{"source":"ALDH2","target":"PILRA","value":11},
{"source":"ALDH2","target":"SNX10","value":11},
{"source":"ALDH2","target":"MMP14","value":10},
{"source":"ALDH2","target":"GLRX","value":11},
{"source":"ALDH2","target":"PSAP","value":11},
{"source":"ALDH2","target":"C15orf48","value":11},
{"source":"ALDH2","target":"DRAM1","value":11},
{"source":"ALDH2","target":"RILPL2","value":8},
{"source":"ALDH2","target":"IFNGR1","value":11},
{"source":"ALDH2","target":"KYNU","value":11},
{"source":"ALDH2","target":"NCOA4","value":11},
{"source":"ALDH2","target":"HLA.B","value":11},
{"source":"ALDH2","target":"HLA.A","value":10},
{"source":"ALDH2","target":"SLC2A6","value":11},
{"source":"ALDH2","target":"OAZ2","value":9},
{"source":"ALDH2","target":"DMXL2","value":8},
{"source":"ALDH2","target":"NUPR1","value":9},
{"source":"ALDH2","target":"DNASE2","value":9},
{"source":"ALDH2","target":"CYBB","value":7},
{"source":"MARCKS","target":"FUCA1","value":10},
{"source":"MARCKS","target":"CYP27A1","value":11},
{"source":"MARCKS","target":"GRN","value":11},
{"source":"MARCKS","target":"TKT","value":10},
{"source":"MARCKS","target":"TNFAIP2","value":11},
{"source":"MARCKS","target":"NINJ1","value":10},
{"source":"MARCKS","target":"CLEC4E","value":11},
{"source":"MARCKS","target":"PTAFR","value":11},
{"source":"MARCKS","target":"ALDH2","value":11},
{"source":"MARCKS","target":"LYZ","value":11},
{"source":"MARCKS","target":"GRINA","value":11},
{"source":"MARCKS","target":"TNFAIP6","value":11},
{"source":"MARCKS","target":"SOD2","value":11},
{"source":"MARCKS","target":"SPARC","value":11},
{"source":"MARCKS","target":"CTSS","value":10},
{"source":"MARCKS","target":"HCK","value":11},
{"source":"MARCKS","target":"PILRA","value":11},
{"source":"MARCKS","target":"SNX10","value":11},
{"source":"MARCKS","target":"MMP14","value":10},
{"source":"MARCKS","target":"GLRX","value":12},
{"source":"MARCKS","target":"PSAP","value":11},
{"source":"MARCKS","target":"C15orf48","value":11},
{"source":"MARCKS","target":"DRAM1","value":11},
{"source":"MARCKS","target":"RILPL2","value":8},
{"source":"MARCKS","target":"IFNGR1","value":11},
{"source":"MARCKS","target":"KYNU","value":11},
{"source":"MARCKS","target":"NCOA4","value":11},
{"source":"MARCKS","target":"HLA.B","value":11},
{"source":"MARCKS","target":"HLA.A","value":10},
{"source":"MARCKS","target":"SLC2A6","value":11},
{"source":"MARCKS","target":"OAZ2","value":9},
{"source":"MARCKS","target":"DMXL2","value":8},
{"source":"MARCKS","target":"NUPR1","value":9},
{"source":"MARCKS","target":"DNASE2","value":9},
{"source":"MARCKS","target":"CYBB","value":8},
{"source":"MARCKS","target":"PRDX1","value":7},
{"source":"LYZ","target":"FUCA1","value":10},
{"source":"LYZ","target":"CYP27A1","value":11},
{"source":"LYZ","target":"GRN","value":11},
{"source":"LYZ","target":"TKT","value":10},
{"source":"LYZ","target":"TNFAIP2","value":11},
{"source":"LYZ","target":"NINJ1","value":9},
{"source":"LYZ","target":"CLEC4E","value":11},
{"source":"LYZ","target":"PTAFR","value":11},
{"source":"LYZ","target":"ALDH2","value":11},
{"source":"LYZ","target":"MARCKS","value":11},
{"source":"LYZ","target":"GRINA","value":11},
{"source":"LYZ","target":"TNFAIP6","value":11},
{"source":"LYZ","target":"SOD2","value":11},
{"source":"LYZ","target":"SPARC","value":11},
{"source":"LYZ","target":"CTSS","value":10},
{"source":"LYZ","target":"HCK","value":11},
{"source":"LYZ","target":"PILRA","value":11},
{"source":"LYZ","target":"SNX10","value":11},
{"source":"LYZ","target":"MMP14","value":10},
{"source":"LYZ","target":"GLRX","value":11},
{"source":"LYZ","target":"PSAP","value":11},
{"source":"LYZ","target":"C15orf48","value":11},
{"source":"LYZ","target":"DRAM1","value":11},
{"source":"LYZ","target":"RILPL2","value":8},
{"source":"LYZ","target":"IFNGR1","value":11},
{"source":"LYZ","target":"KYNU","value":11},
{"source":"LYZ","target":"NCOA4","value":11},
{"source":"LYZ","target":"HLA.B","value":11},
{"source":"LYZ","target":"HLA.A","value":10},
{"source":"LYZ","target":"SLC2A6","value":11},
{"source":"LYZ","target":"OAZ2","value":9},
{"source":"LYZ","target":"DMXL2","value":8},
{"source":"LYZ","target":"NUPR1","value":9},
{"source":"LYZ","target":"DNASE2","value":9},
{"source":"LYZ","target":"CYBB","value":7},
{"source":"SAT1","target":"BASP1","value":7},
{"source":"SAT1","target":"SOD2","value":8},
{"source":"SAT1","target":"SLC43A2","value":7},
{"source":"SAT1","target":"CSTA","value":8},
{"source":"SAT1","target":"NCOA4","value":8},
{"source":"SAT1","target":"SLAMF7","value":8},
{"source":"GRINA","target":"FUCA1","value":10},
{"source":"GRINA","target":"CYP27A1","value":11},
{"source":"GRINA","target":"GRN","value":11},
{"source":"GRINA","target":"TKT","value":10},
{"source":"GRINA","target":"TNFAIP2","value":11},
{"source":"GRINA","target":"NINJ1","value":9},
{"source":"GRINA","target":"CLEC4E","value":11},
{"source":"GRINA","target":"PTAFR","value":11},
{"source":"GRINA","target":"ALDH2","value":11},
{"source":"GRINA","target":"MARCKS","value":11},
{"source":"GRINA","target":"LYZ","value":11},
{"source":"GRINA","target":"TNFAIP6","value":11},
{"source":"GRINA","target":"SOD2","value":11},
{"source":"GRINA","target":"SPARC","value":11},
{"source":"GRINA","target":"CTSS","value":10},
{"source":"GRINA","target":"HCK","value":11},
{"source":"GRINA","target":"PILRA","value":11},
{"source":"GRINA","target":"SNX10","value":11},
{"source":"GRINA","target":"MMP14","value":10},
{"source":"GRINA","target":"GLRX","value":11},
{"source":"GRINA","target":"PSAP","value":11},
{"source":"GRINA","target":"C15orf48","value":11},
{"source":"GRINA","target":"DRAM1","value":11},
{"source":"GRINA","target":"RILPL2","value":8},
{"source":"GRINA","target":"IFNGR1","value":11},
{"source":"GRINA","target":"KYNU","value":11},
{"source":"GRINA","target":"NCOA4","value":11},
{"source":"GRINA","target":"HLA.B","value":11},
{"source":"GRINA","target":"HLA.A","value":10},
{"source":"GRINA","target":"SLC2A6","value":11},
{"source":"GRINA","target":"OAZ2","value":9},
{"source":"GRINA","target":"DMXL2","value":8},
{"source":"GRINA","target":"NUPR1","value":9},
{"source":"GRINA","target":"DNASE2","value":9},
{"source":"GRINA","target":"CYBB","value":7},
{"source":"TNFAIP6","target":"FUCA1","value":10},
{"source":"TNFAIP6","target":"CYP27A1","value":11},
{"source":"TNFAIP6","target":"GRN","value":11},
{"source":"TNFAIP6","target":"TKT","value":10},
{"source":"TNFAIP6","target":"TNFAIP2","value":11},
{"source":"TNFAIP6","target":"NINJ1","value":9},
{"source":"TNFAIP6","target":"CLEC4E","value":11},
{"source":"TNFAIP6","target":"PTAFR","value":11},
{"source":"TNFAIP6","target":"ALDH2","value":11},
{"source":"TNFAIP6","target":"MARCKS","value":11},
{"source":"TNFAIP6","target":"LYZ","value":11},
{"source":"TNFAIP6","target":"GRINA","value":11},
{"source":"TNFAIP6","target":"SOD2","value":11},
{"source":"TNFAIP6","target":"SPARC","value":11},
{"source":"TNFAIP6","target":"CTSS","value":10},
{"source":"TNFAIP6","target":"HCK","value":11},
{"source":"TNFAIP6","target":"PILRA","value":11},
{"source":"TNFAIP6","target":"SNX10","value":11},
{"source":"TNFAIP6","target":"MMP14","value":10},
{"source":"TNFAIP6","target":"GLRX","value":11},
{"source":"TNFAIP6","target":"PSAP","value":11},
{"source":"TNFAIP6","target":"C15orf48","value":11},
{"source":"TNFAIP6","target":"DRAM1","value":11},
{"source":"TNFAIP6","target":"RILPL2","value":8},
{"source":"TNFAIP6","target":"IFNGR1","value":11},
{"source":"TNFAIP6","target":"KYNU","value":11},
{"source":"TNFAIP6","target":"NCOA4","value":11},
{"source":"TNFAIP6","target":"HLA.B","value":11},
{"source":"TNFAIP6","target":"HLA.A","value":10},
{"source":"TNFAIP6","target":"SLC2A6","value":11},
{"source":"TNFAIP6","target":"OAZ2","value":9},
{"source":"TNFAIP6","target":"DMXL2","value":8},
{"source":"TNFAIP6","target":"NUPR1","value":9},
{"source":"TNFAIP6","target":"DNASE2","value":9},
{"source":"TNFAIP6","target":"CYBB","value":7},
{"source":"SOD2","target":"FUCA1","value":10},
{"source":"SOD2","target":"CYP27A1","value":11},
{"source":"SOD2","target":"GRN","value":11},
{"source":"SOD2","target":"BASP1","value":7},
{"source":"SOD2","target":"TKT","value":10},
{"source":"SOD2","target":"TNFAIP2","value":11},
{"source":"SOD2","target":"NINJ1","value":9},
{"source":"SOD2","target":"CLEC4E","value":11},
{"source":"SOD2","target":"PTAFR","value":11},
{"source":"SOD2","target":"ALDH2","value":11},
{"source":"SOD2","target":"MARCKS","value":11},
{"source":"SOD2","target":"LYZ","value":11},
{"source":"SOD2","target":"SAT1","value":8},
{"source":"SOD2","target":"GRINA","value":11},
{"source":"SOD2","target":"TNFAIP6","value":11},
{"source":"SOD2","target":"SLC43A2","value":7},
{"source":"SOD2","target":"SPARC","value":11},
{"source":"SOD2","target":"CSTA","value":8},
{"source":"SOD2","target":"CTSS","value":10},
{"source":"SOD2","target":"HCK","value":11},
{"source":"SOD2","target":"PILRA","value":11},
{"source":"SOD2","target":"SNX10","value":11},
{"source":"SOD2","target":"MMP14","value":10},
{"source":"SOD2","target":"GLRX","value":11},
{"source":"SOD2","target":"PSAP","value":11},
{"source":"SOD2","target":"C15orf48","value":11},
{"source":"SOD2","target":"DRAM1","value":11},
{"source":"SOD2","target":"RILPL2","value":8},
{"source":"SOD2","target":"IFNGR1","value":11},
{"source":"SOD2","target":"KYNU","value":11},
{"source":"SOD2","target":"NCOA4","value":14},
{"source":"SOD2","target":"HLA.B","value":11},
{"source":"SOD2","target":"HLA.A","value":10},
{"source":"SOD2","target":"SLC2A6","value":11},
{"source":"SOD2","target":"OAZ2","value":9},
{"source":"SOD2","target":"SLAMF7","value":8},
{"source":"SOD2","target":"DMXL2","value":8},
{"source":"SOD2","target":"NUPR1","value":9},
{"source":"SOD2","target":"DNASE2","value":9},
{"source":"SOD2","target":"CYBB","value":7},
{"source":"SLC43A2","target":"SAT1","value":7},
{"source":"SLC43A2","target":"SOD2","value":7},
{"source":"SLC43A2","target":"CSTA","value":7},
{"source":"SLC43A2","target":"NCOA4","value":7},
{"source":"SLC43A2","target":"SLAMF7","value":7},
{"source":"SPARC","target":"FUCA1","value":10},
{"source":"SPARC","target":"CYP27A1","value":11},
{"source":"SPARC","target":"GRN","value":11},
{"source":"SPARC","target":"TKT","value":10},
{"source":"SPARC","target":"TNFAIP2","value":11},
{"source":"SPARC","target":"NINJ1","value":9},
{"source":"SPARC","target":"CLEC4E","value":11},
{"source":"SPARC","target":"PTAFR","value":11},
{"source":"SPARC","target":"ALDH2","value":11},
{"source":"SPARC","target":"MARCKS","value":11},
{"source":"SPARC","target":"LYZ","value":11},
{"source":"SPARC","target":"GRINA","value":11},
{"source":"SPARC","target":"TNFAIP6","value":11},
{"source":"SPARC","target":"SOD2","value":11},
{"source":"SPARC","target":"CTSS","value":10},
{"source":"SPARC","target":"HCK","value":11},
{"source":"SPARC","target":"PILRA","value":11},
{"source":"SPARC","target":"SNX10","value":11},
{"source":"SPARC","target":"MMP14","value":10},
{"source":"SPARC","target":"GLRX","value":11},
{"source":"SPARC","target":"PSAP","value":11},
{"source":"SPARC","target":"C15orf48","value":11},
{"source":"SPARC","target":"DRAM1","value":11},
{"source":"SPARC","target":"RILPL2","value":8},
{"source":"SPARC","target":"IFNGR1","value":11},
{"source":"SPARC","target":"KYNU","value":11},
{"source":"SPARC","target":"NCOA4","value":11},
{"source":"SPARC","target":"HLA.B","value":11},
{"source":"SPARC","target":"HLA.A","value":10},
{"source":"SPARC","target":"SLC2A6","value":11},
{"source":"SPARC","target":"OAZ2","value":9},
{"source":"SPARC","target":"DMXL2","value":8},
{"source":"SPARC","target":"NUPR1","value":9},
{"source":"SPARC","target":"DNASE2","value":9},
{"source":"SPARC","target":"CYBB","value":7},
{"source":"CSTA","target":"BASP1","value":7},
{"source":"CSTA","target":"SAT1","value":8},
{"source":"CSTA","target":"SOD2","value":8},
{"source":"CSTA","target":"SLC43A2","value":7},
{"source":"CSTA","target":"NCOA4","value":8},
{"source":"CSTA","target":"SLAMF7","value":8},
{"source":"CTSS","target":"FUCA1","value":9},
{"source":"CTSS","target":"CYP27A1","value":10},
{"source":"CTSS","target":"GRN","value":10},
{"source":"CTSS","target":"TKT","value":9},
{"source":"CTSS","target":"TNFAIP2","value":10},
{"source":"CTSS","target":"NINJ1","value":9},
{"source":"CTSS","target":"CLEC4E","value":10},
{"source":"CTSS","target":"PTAFR","value":10},
{"source":"CTSS","target":"ALDH2","value":10},
{"source":"CTSS","target":"MARCKS","value":10},
{"source":"CTSS","target":"LYZ","value":10},
{"source":"CTSS","target":"GRINA","value":10},
{"source":"CTSS","target":"TNFAIP6","value":10},
{"source":"CTSS","target":"SOD2","value":10},
{"source":"CTSS","target":"SPARC","value":10},
{"source":"CTSS","target":"HCK","value":10},
{"source":"CTSS","target":"PILRA","value":10},
{"source":"CTSS","target":"SNX10","value":10},
{"source":"CTSS","target":"MMP14","value":9},
{"source":"CTSS","target":"GLRX","value":10},
{"source":"CTSS","target":"PSAP","value":10},
{"source":"CTSS","target":"C15orf48","value":10},
{"source":"CTSS","target":"DRAM1","value":10},
{"source":"CTSS","target":"RILPL2","value":7},
{"source":"CTSS","target":"IFNGR1","value":10},
{"source":"CTSS","target":"KYNU","value":10},
{"source":"CTSS","target":"NCOA4","value":10},
{"source":"CTSS","target":"HLA.B","value":10},
{"source":"CTSS","target":"HLA.A","value":10},
{"source":"CTSS","target":"SLC2A6","value":10},
{"source":"CTSS","target":"OAZ2","value":8},
{"source":"CTSS","target":"DMXL2","value":8},
{"source":"CTSS","target":"NUPR1","value":8},
{"source":"CTSS","target":"DNASE2","value":8},
{"source":"HCK","target":"FUCA1","value":10},
{"source":"HCK","target":"CYP27A1","value":11},
{"source":"HCK","target":"GRN","value":11},
{"source":"HCK","target":"TKT","value":10},
{"source":"HCK","target":"TNFAIP2","value":11},
{"source":"HCK","target":"NINJ1","value":9},
{"source":"HCK","target":"CLEC4E","value":11},
{"source":"HCK","target":"PTAFR","value":11},
{"source":"HCK","target":"ALDH2","value":11},
{"source":"HCK","target":"MARCKS","value":11},
{"source":"HCK","target":"LYZ","value":11},
{"source":"HCK","target":"GRINA","value":11},
{"source":"HCK","target":"TNFAIP6","value":11},
{"source":"HCK","target":"SOD2","value":11},
{"source":"HCK","target":"SPARC","value":11},
{"source":"HCK","target":"CTSS","value":10},
{"source":"HCK","target":"PILRA","value":11},
{"source":"HCK","target":"SNX10","value":11},
{"source":"HCK","target":"MMP14","value":10},
{"source":"HCK","target":"GLRX","value":11},
{"source":"HCK","target":"PSAP","value":11},
{"source":"HCK","target":"C15orf48","value":11},
{"source":"HCK","target":"DRAM1","value":11},
{"source":"HCK","target":"RILPL2","value":8},
{"source":"HCK","target":"IFNGR1","value":11},
{"source":"HCK","target":"KYNU","value":11},
{"source":"HCK","target":"NCOA4","value":11},
{"source":"HCK","target":"HLA.B","value":11},
{"source":"HCK","target":"HLA.A","value":10},
{"source":"HCK","target":"SLC2A6","value":11},
{"source":"HCK","target":"OAZ2","value":9},
{"source":"HCK","target":"DMXL2","value":8},
{"source":"HCK","target":"NUPR1","value":9},
{"source":"HCK","target":"DNASE2","value":9},
{"source":"HCK","target":"CYBB","value":7},
{"source":"PILRA","target":"FUCA1","value":10},
{"source":"PILRA","target":"CYP27A1","value":11},
{"source":"PILRA","target":"GRN","value":11},
{"source":"PILRA","target":"TKT","value":10},
{"source":"PILRA","target":"TNFAIP2","value":11},
{"source":"PILRA","target":"NINJ1","value":9},
{"source":"PILRA","target":"CLEC4E","value":11},
{"source":"PILRA","target":"PTAFR","value":11},
{"source":"PILRA","target":"ALDH2","value":11},
{"source":"PILRA","target":"MARCKS","value":11},
{"source":"PILRA","target":"LYZ","value":11},
{"source":"PILRA","target":"GRINA","value":11},
{"source":"PILRA","target":"TNFAIP6","value":11},
{"source":"PILRA","target":"SOD2","value":11},
{"source":"PILRA","target":"SPARC","value":11},
{"source":"PILRA","target":"CTSS","value":10},
{"source":"PILRA","target":"HCK","value":11},
{"source":"PILRA","target":"SNX10","value":11},
{"source":"PILRA","target":"MMP14","value":10},
{"source":"PILRA","target":"GLRX","value":11},
{"source":"PILRA","target":"PSAP","value":11},
{"source":"PILRA","target":"C15orf48","value":11},
{"source":"PILRA","target":"DRAM1","value":11},
{"source":"PILRA","target":"RILPL2","value":8},
{"source":"PILRA","target":"IFNGR1","value":11},
{"source":"PILRA","target":"KYNU","value":11},
{"source":"PILRA","target":"NCOA4","value":11},
{"source":"PILRA","target":"HLA.B","value":11},
{"source":"PILRA","target":"HLA.A","value":10},
{"source":"PILRA","target":"SLC2A6","value":11},
{"source":"PILRA","target":"OAZ2","value":9},
{"source":"PILRA","target":"DMXL2","value":8},
{"source":"PILRA","target":"NUPR1","value":9},
{"source":"PILRA","target":"DNASE2","value":9},
{"source":"PILRA","target":"CYBB","value":7},
{"source":"SNX10","target":"FUCA1","value":10},
{"source":"SNX10","target":"CYP27A1","value":11},
{"source":"SNX10","target":"GRN","value":11},
{"source":"SNX10","target":"TKT","value":10},
{"source":"SNX10","target":"TNFAIP2","value":11},
{"source":"SNX10","target":"NINJ1","value":9},
{"source":"SNX10","target":"CLEC4E","value":11},
{"source":"SNX10","target":"PTAFR","value":11},
{"source":"SNX10","target":"ALDH2","value":11},
{"source":"SNX10","target":"MARCKS","value":11},
{"source":"SNX10","target":"LYZ","value":11},
{"source":"SNX10","target":"GRINA","value":11},
{"source":"SNX10","target":"TNFAIP6","value":11},
{"source":"SNX10","target":"SOD2","value":11},
{"source":"SNX10","target":"SPARC","value":11},
{"source":"SNX10","target":"CTSS","value":10},
{"source":"SNX10","target":"HCK","value":11},
{"source":"SNX10","target":"PILRA","value":11},
{"source":"SNX10","target":"MMP14","value":10},
{"source":"SNX10","target":"GLRX","value":11},
{"source":"SNX10","target":"PSAP","value":11},
{"source":"SNX10","target":"C15orf48","value":11},
{"source":"SNX10","target":"DRAM1","value":11},
{"source":"SNX10","target":"RILPL2","value":8},
{"source":"SNX10","target":"IFNGR1","value":11},
{"source":"SNX10","target":"KYNU","value":11},
{"source":"SNX10","target":"NCOA4","value":11},
{"source":"SNX10","target":"HLA.B","value":11},
{"source":"SNX10","target":"HLA.A","value":10},
{"source":"SNX10","target":"SLC2A6","value":11},
{"source":"SNX10","target":"OAZ2","value":9},
{"source":"SNX10","target":"DMXL2","value":8},
{"source":"SNX10","target":"NUPR1","value":9},
{"source":"SNX10","target":"DNASE2","value":9},
{"source":"SNX10","target":"CYBB","value":7},
{"source":"MMP14","target":"FUCA1","value":9},
{"source":"MMP14","target":"CYP27A1","value":10},
{"source":"MMP14","target":"GRN","value":10},
{"source":"MMP14","target":"TKT","value":9},
{"source":"MMP14","target":"TNFAIP2","value":10},
{"source":"MMP14","target":"NINJ1","value":9},
{"source":"MMP14","target":"CLEC4E","value":10},
{"source":"MMP14","target":"PTAFR","value":10},
{"source":"MMP14","target":"ALDH2","value":10},
{"source":"MMP14","target":"MARCKS","value":10},
{"source":"MMP14","target":"LYZ","value":10},
{"source":"MMP14","target":"GRINA","value":10},
{"source":"MMP14","target":"TNFAIP6","value":10},
{"source":"MMP14","target":"SOD2","value":10},
{"source":"MMP14","target":"SPARC","value":10},
{"source":"MMP14","target":"CTSS","value":9},
{"source":"MMP14","target":"HCK","value":10},
{"source":"MMP14","target":"PILRA","value":10},
{"source":"MMP14","target":"SNX10","value":10},
{"source":"MMP14","target":"GLRX","value":10},
{"source":"MMP14","target":"PSAP","value":10},
{"source":"MMP14","target":"C15orf48","value":10},
{"source":"MMP14","target":"DRAM1","value":10},
{"source":"MMP14","target":"RILPL2","value":7},
{"source":"MMP14","target":"IFNGR1","value":10},
{"source":"MMP14","target":"KYNU","value":10},
{"source":"MMP14","target":"NCOA4","value":10},
{"source":"MMP14","target":"HLA.B","value":10},
{"source":"MMP14","target":"HLA.A","value":9},
{"source":"MMP14","target":"SLC2A6","value":10},
{"source":"MMP14","target":"OAZ2","value":8},
{"source":"MMP14","target":"DMXL2","value":8},
{"source":"MMP14","target":"NUPR1","value":8},
{"source":"MMP14","target":"DNASE2","value":8},
{"source":"GLRX","target":"FUCA1","value":10},
{"source":"GLRX","target":"CYP27A1","value":11},
{"source":"GLRX","target":"GRN","value":11},
{"source":"GLRX","target":"TKT","value":10},
{"source":"GLRX","target":"TNFAIP2","value":11},
{"source":"GLRX","target":"NINJ1","value":10},
{"source":"GLRX","target":"CLEC4E","value":11},
{"source":"GLRX","target":"PTAFR","value":11},
{"source":"GLRX","target":"ALDH2","value":11},
{"source":"GLRX","target":"MARCKS","value":12},
{"source":"GLRX","target":"LYZ","value":11},
{"source":"GLRX","target":"GRINA","value":11},
{"source":"GLRX","target":"TNFAIP6","value":11},
{"source":"GLRX","target":"SOD2","value":11},
{"source":"GLRX","target":"SPARC","value":11},
{"source":"GLRX","target":"CTSS","value":10},
{"source":"GLRX","target":"HCK","value":11},
{"source":"GLRX","target":"PILRA","value":11},
{"source":"GLRX","target":"SNX10","value":11},
{"source":"GLRX","target":"MMP14","value":10},
{"source":"GLRX","target":"PSAP","value":11},
{"source":"GLRX","target":"C15orf48","value":11},
{"source":"GLRX","target":"DRAM1","value":11},
{"source":"GLRX","target":"RILPL2","value":8},
{"source":"GLRX","target":"IFNGR1","value":11},
{"source":"GLRX","target":"KYNU","value":11},
{"source":"GLRX","target":"NCOA4","value":11},
{"source":"GLRX","target":"HLA.B","value":11},
{"source":"GLRX","target":"HLA.A","value":10},
{"source":"GLRX","target":"SLC2A6","value":11},
{"source":"GLRX","target":"OAZ2","value":9},
{"source":"GLRX","target":"DMXL2","value":8},
{"source":"GLRX","target":"NUPR1","value":9},
{"source":"GLRX","target":"DNASE2","value":9},
{"source":"GLRX","target":"CYBB","value":8},
{"source":"GLRX","target":"PRDX1","value":7},
{"source":"PSAP","target":"FUCA1","value":10},
{"source":"PSAP","target":"CYP27A1","value":11},
{"source":"PSAP","target":"GRN","value":11},
{"source":"PSAP","target":"TKT","value":10},
{"source":"PSAP","target":"TNFAIP2","value":11},
{"source":"PSAP","target":"NINJ1","value":9},
{"source":"PSAP","target":"CLEC4E","value":11},
{"source":"PSAP","target":"PTAFR","value":11},
{"source":"PSAP","target":"ALDH2","value":11},
{"source":"PSAP","target":"MARCKS","value":11},
{"source":"PSAP","target":"LYZ","value":11},
{"source":"PSAP","target":"GRINA","value":11},
{"source":"PSAP","target":"TNFAIP6","value":11},
{"source":"PSAP","target":"SOD2","value":11},
{"source":"PSAP","target":"SPARC","value":11},
{"source":"PSAP","target":"CTSS","value":10},
{"source":"PSAP","target":"HCK","value":11},
{"source":"PSAP","target":"PILRA","value":11},
{"source":"PSAP","target":"SNX10","value":11},
{"source":"PSAP","target":"MMP14","value":10},
{"source":"PSAP","target":"GLRX","value":11},
{"source":"PSAP","target":"C15orf48","value":11},
{"source":"PSAP","target":"DRAM1","value":11},
{"source":"PSAP","target":"RILPL2","value":8},
{"source":"PSAP","target":"IFNGR1","value":11},
{"source":"PSAP","target":"KYNU","value":11},
{"source":"PSAP","target":"NCOA4","value":11},
{"source":"PSAP","target":"HLA.B","value":11},
{"source":"PSAP","target":"HLA.A","value":10},
{"source":"PSAP","target":"SLC2A6","value":11},
{"source":"PSAP","target":"OAZ2","value":9},
{"source":"PSAP","target":"DMXL2","value":8},
{"source":"PSAP","target":"NUPR1","value":9},
{"source":"PSAP","target":"DNASE2","value":9},
{"source":"PSAP","target":"CYBB","value":7},
{"source":"C15orf48","target":"FUCA1","value":10},
{"source":"C15orf48","target":"CYP27A1","value":11},
{"source":"C15orf48","target":"GRN","value":11},
{"source":"C15orf48","target":"TKT","value":10},
{"source":"C15orf48","target":"TNFAIP2","value":11},
{"source":"C15orf48","target":"NINJ1","value":9},
{"source":"C15orf48","target":"CLEC4E","value":11},
{"source":"C15orf48","target":"PTAFR","value":11},
{"source":"C15orf48","target":"ALDH2","value":11},
{"source":"C15orf48","target":"MARCKS","value":11},
{"source":"C15orf48","target":"LYZ","value":11},
{"source":"C15orf48","target":"GRINA","value":11},
{"source":"C15orf48","target":"TNFAIP6","value":11},
{"source":"C15orf48","target":"SOD2","value":11},
{"source":"C15orf48","target":"SPARC","value":11},
{"source":"C15orf48","target":"CTSS","value":10},
{"source":"C15orf48","target":"HCK","value":11},
{"source":"C15orf48","target":"PILRA","value":11},
{"source":"C15orf48","target":"SNX10","value":11},
{"source":"C15orf48","target":"MMP14","value":10},
{"source":"C15orf48","target":"GLRX","value":11},
{"source":"C15orf48","target":"PSAP","value":11},
{"source":"C15orf48","target":"DRAM1","value":11},
{"source":"C15orf48","target":"RILPL2","value":8},
{"source":"C15orf48","target":"IFNGR1","value":11},
{"source":"C15orf48","target":"KYNU","value":11},
{"source":"C15orf48","target":"NCOA4","value":11},
{"source":"C15orf48","target":"HLA.B","value":11},
{"source":"C15orf48","target":"HLA.A","value":10},
{"source":"C15orf48","target":"SLC2A6","value":11},
{"source":"C15orf48","target":"OAZ2","value":9},
{"source":"C15orf48","target":"DMXL2","value":8},
{"source":"C15orf48","target":"NUPR1","value":9},
{"source":"C15orf48","target":"DNASE2","value":9},
{"source":"C15orf48","target":"CYBB","value":7},
{"source":"DRAM1","target":"FUCA1","value":10},
{"source":"DRAM1","target":"CYP27A1","value":11},
{"source":"DRAM1","target":"GRN","value":11},
{"source":"DRAM1","target":"TKT","value":10},
{"source":"DRAM1","target":"TNFAIP2","value":11},
{"source":"DRAM1","target":"NINJ1","value":9},
{"source":"DRAM1","target":"CLEC4E","value":11},
{"source":"DRAM1","target":"PTAFR","value":11},
{"source":"DRAM1","target":"ALDH2","value":11},
{"source":"DRAM1","target":"MARCKS","value":11},
{"source":"DRAM1","target":"LYZ","value":11},
{"source":"DRAM1","target":"GRINA","value":11},
{"source":"DRAM1","target":"TNFAIP6","value":11},
{"source":"DRAM1","target":"SOD2","value":11},
{"source":"DRAM1","target":"SPARC","value":11},
{"source":"DRAM1","target":"CTSS","value":10},
{"source":"DRAM1","target":"HCK","value":11},
{"source":"DRAM1","target":"PILRA","value":11},
{"source":"DRAM1","target":"SNX10","value":11},
{"source":"DRAM1","target":"MMP14","value":10},
{"source":"DRAM1","target":"GLRX","value":11},
{"source":"DRAM1","target":"PSAP","value":11},
{"source":"DRAM1","target":"C15orf48","value":11},
{"source":"DRAM1","target":"RILPL2","value":8},
{"source":"DRAM1","target":"IFNGR1","value":11},
{"source":"DRAM1","target":"KYNU","value":11},
{"source":"DRAM1","target":"NCOA4","value":11},
{"source":"DRAM1","target":"HLA.B","value":11},
{"source":"DRAM1","target":"HLA.A","value":10},
{"source":"DRAM1","target":"SLC2A6","value":11},
{"source":"DRAM1","target":"OAZ2","value":9},
{"source":"DRAM1","target":"DMXL2","value":8},
{"source":"DRAM1","target":"NUPR1","value":9},
{"source":"DRAM1","target":"DNASE2","value":9},
{"source":"DRAM1","target":"CYBB","value":7},
{"source":"RILPL2","target":"FUCA1","value":8},
{"source":"RILPL2","target":"CYP27A1","value":8},
{"source":"RILPL2","target":"GRN","value":8},
{"source":"RILPL2","target":"TKT","value":8},
{"source":"RILPL2","target":"TNFAIP2","value":8},
{"source":"RILPL2","target":"CLEC4E","value":8},
{"source":"RILPL2","target":"PTAFR","value":8},
{"source":"RILPL2","target":"ALDH2","value":8},
{"source":"RILPL2","target":"MARCKS","value":8},
{"source":"RILPL2","target":"LYZ","value":8},
{"source":"RILPL2","target":"GRINA","value":8},
{"source":"RILPL2","target":"TNFAIP6","value":8},
{"source":"RILPL2","target":"SOD2","value":8},
{"source":"RILPL2","target":"SPARC","value":8},
{"source":"RILPL2","target":"CTSS","value":7},
{"source":"RILPL2","target":"HCK","value":8},
{"source":"RILPL2","target":"PILRA","value":8},
{"source":"RILPL2","target":"SNX10","value":8},
{"source":"RILPL2","target":"MMP14","value":7},
{"source":"RILPL2","target":"GLRX","value":8},
{"source":"RILPL2","target":"PSAP","value":8},
{"source":"RILPL2","target":"C15orf48","value":8},
{"source":"RILPL2","target":"DRAM1","value":8},
{"source":"RILPL2","target":"IFNGR1","value":8},
{"source":"RILPL2","target":"KYNU","value":8},
{"source":"RILPL2","target":"NCOA4","value":8},
{"source":"RILPL2","target":"HLA.B","value":8},
{"source":"RILPL2","target":"HLA.A","value":7},
{"source":"RILPL2","target":"SLC2A6","value":8},
{"source":"RILPL2","target":"OAZ2","value":8},
{"source":"RILPL2","target":"NUPR1","value":7},
{"source":"RILPL2","target":"DNASE2","value":7},
{"source":"RILPL2","target":"CYBB","value":7},
{"source":"IFNGR1","target":"FUCA1","value":10},
{"source":"IFNGR1","target":"CYP27A1","value":11},
{"source":"IFNGR1","target":"GRN","value":11},
{"source":"IFNGR1","target":"TKT","value":10},
{"source":"IFNGR1","target":"TNFAIP2","value":11},
{"source":"IFNGR1","target":"NINJ1","value":9},
{"source":"IFNGR1","target":"CLEC4E","value":11},
{"source":"IFNGR1","target":"PTAFR","value":11},
{"source":"IFNGR1","target":"ALDH2","value":11},
{"source":"IFNGR1","target":"MARCKS","value":11},
{"source":"IFNGR1","target":"LYZ","value":11},
{"source":"IFNGR1","target":"GRINA","value":11},
{"source":"IFNGR1","target":"TNFAIP6","value":11},
{"source":"IFNGR1","target":"SOD2","value":11},
{"source":"IFNGR1","target":"SPARC","value":11},
{"source":"IFNGR1","target":"CTSS","value":10},
{"source":"IFNGR1","target":"HCK","value":11},
{"source":"IFNGR1","target":"PILRA","value":11},
{"source":"IFNGR1","target":"SNX10","value":11},
{"source":"IFNGR1","target":"MMP14","value":10},
{"source":"IFNGR1","target":"GLRX","value":11},
{"source":"IFNGR1","target":"PSAP","value":11},
{"source":"IFNGR1","target":"C15orf48","value":11},
{"source":"IFNGR1","target":"DRAM1","value":11},
{"source":"IFNGR1","target":"RILPL2","value":8},
{"source":"IFNGR1","target":"KYNU","value":11},
{"source":"IFNGR1","target":"NCOA4","value":11},
{"source":"IFNGR1","target":"HLA.B","value":11},
{"source":"IFNGR1","target":"HLA.A","value":10},
{"source":"IFNGR1","target":"SLC2A6","value":11},
{"source":"IFNGR1","target":"OAZ2","value":9},
{"source":"IFNGR1","target":"DMXL2","value":8},
{"source":"IFNGR1","target":"NUPR1","value":9},
{"source":"IFNGR1","target":"DNASE2","value":9},
{"source":"IFNGR1","target":"CYBB","value":7},
{"source":"KYNU","target":"FUCA1","value":10},
{"source":"KYNU","target":"CYP27A1","value":11},
{"source":"KYNU","target":"GRN","value":11},
{"source":"KYNU","target":"TKT","value":10},
{"source":"KYNU","target":"TNFAIP2","value":11},
{"source":"KYNU","target":"NINJ1","value":9},
{"source":"KYNU","target":"CLEC4E","value":11},
{"source":"KYNU","target":"PTAFR","value":11},
{"source":"KYNU","target":"ALDH2","value":11},
{"source":"KYNU","target":"MARCKS","value":11},
{"source":"KYNU","target":"LYZ","value":11},
{"source":"KYNU","target":"GRINA","value":11},
{"source":"KYNU","target":"TNFAIP6","value":11},
{"source":"KYNU","target":"SOD2","value":11},
{"source":"KYNU","target":"SPARC","value":11},
{"source":"KYNU","target":"CTSS","value":10},
{"source":"KYNU","target":"HCK","value":11},
{"source":"KYNU","target":"PILRA","value":11},
{"source":"KYNU","target":"SNX10","value":11},
{"source":"KYNU","target":"MMP14","value":10},
{"source":"KYNU","target":"GLRX","value":11},
{"source":"KYNU","target":"PSAP","value":11},
{"source":"KYNU","target":"C15orf48","value":11},
{"source":"KYNU","target":"DRAM1","value":11},
{"source":"KYNU","target":"RILPL2","value":8},
{"source":"KYNU","target":"IFNGR1","value":11},
{"source":"KYNU","target":"NCOA4","value":11},
{"source":"KYNU","target":"HLA.B","value":11},
{"source":"KYNU","target":"HLA.A","value":10},
{"source":"KYNU","target":"SLC2A6","value":11},
{"source":"KYNU","target":"OAZ2","value":9},
{"source":"KYNU","target":"DMXL2","value":8},
{"source":"KYNU","target":"NUPR1","value":9},
{"source":"KYNU","target":"DNASE2","value":9},
{"source":"KYNU","target":"CYBB","value":7},
{"source":"NCOA4","target":"FUCA1","value":10},
{"source":"NCOA4","target":"CYP27A1","value":11},
{"source":"NCOA4","target":"GRN","value":11},
{"source":"NCOA4","target":"BASP1","value":7},
{"source":"NCOA4","target":"TKT","value":10},
{"source":"NCOA4","target":"TNFAIP2","value":11},
{"source":"NCOA4","target":"NINJ1","value":9},
{"source":"NCOA4","target":"CLEC4E","value":11},
{"source":"NCOA4","target":"PTAFR","value":11},
{"source":"NCOA4","target":"ALDH2","value":11},
{"source":"NCOA4","target":"MARCKS","value":11},
{"source":"NCOA4","target":"LYZ","value":11},
{"source":"NCOA4","target":"SAT1","value":8},
{"source":"NCOA4","target":"GRINA","value":11},
{"source":"NCOA4","target":"TNFAIP6","value":11},
{"source":"NCOA4","target":"SOD2","value":14},
{"source":"NCOA4","target":"SLC43A2","value":7},
{"source":"NCOA4","target":"SPARC","value":11},
{"source":"NCOA4","target":"CSTA","value":8},
{"source":"NCOA4","target":"CTSS","value":10},
{"source":"NCOA4","target":"HCK","value":11},
{"source":"NCOA4","target":"PILRA","value":11},
{"source":"NCOA4","target":"SNX10","value":11},
{"source":"NCOA4","target":"MMP14","value":10},
{"source":"NCOA4","target":"GLRX","value":11},
{"source":"NCOA4","target":"PSAP","value":11},
{"source":"NCOA4","target":"C15orf48","value":11},
{"source":"NCOA4","target":"DRAM1","value":11},
{"source":"NCOA4","target":"RILPL2","value":8},
{"source":"NCOA4","target":"IFNGR1","value":11},
{"source":"NCOA4","target":"KYNU","value":11},
{"source":"NCOA4","target":"HLA.B","value":11},
{"source":"NCOA4","target":"HLA.A","value":10},
{"source":"NCOA4","target":"SLC2A6","value":11},
{"source":"NCOA4","target":"OAZ2","value":9},
{"source":"NCOA4","target":"SLAMF7","value":8},
{"source":"NCOA4","target":"DMXL2","value":8},
{"source":"NCOA4","target":"NUPR1","value":9},
{"source":"NCOA4","target":"DNASE2","value":9},
{"source":"NCOA4","target":"CYBB","value":7},
{"source":"HLA.B","target":"FUCA1","value":10},
{"source":"HLA.B","target":"CYP27A1","value":11},
{"source":"HLA.B","target":"GRN","value":11},
{"source":"HLA.B","target":"TKT","value":10},
{"source":"HLA.B","target":"TNFAIP2","value":11},
{"source":"HLA.B","target":"NINJ1","value":9},
{"source":"HLA.B","target":"CLEC4E","value":11},
{"source":"HLA.B","target":"PTAFR","value":11},
{"source":"HLA.B","target":"ALDH2","value":11},
{"source":"HLA.B","target":"MARCKS","value":11},
{"source":"HLA.B","target":"LYZ","value":11},
{"source":"HLA.B","target":"GRINA","value":11},
{"source":"HLA.B","target":"TNFAIP6","value":11},
{"source":"HLA.B","target":"SOD2","value":11},
{"source":"HLA.B","target":"SPARC","value":11},
{"source":"HLA.B","target":"CTSS","value":10},
{"source":"HLA.B","target":"HCK","value":11},
{"source":"HLA.B","target":"PILRA","value":11},
{"source":"HLA.B","target":"SNX10","value":11},
{"source":"HLA.B","target":"MMP14","value":10},
{"source":"HLA.B","target":"GLRX","value":11},
{"source":"HLA.B","target":"PSAP","value":11},
{"source":"HLA.B","target":"C15orf48","value":11},
{"source":"HLA.B","target":"DRAM1","value":11},
{"source":"HLA.B","target":"RILPL2","value":8},
{"source":"HLA.B","target":"IFNGR1","value":11},
{"source":"HLA.B","target":"KYNU","value":11},
{"source":"HLA.B","target":"NCOA4","value":11},
{"source":"HLA.B","target":"HLA.A","value":10},
{"source":"HLA.B","target":"SLC2A6","value":11},
{"source":"HLA.B","target":"OAZ2","value":9},
{"source":"HLA.B","target":"DMXL2","value":8},
{"source":"HLA.B","target":"NUPR1","value":9},
{"source":"HLA.B","target":"DNASE2","value":9},
{"source":"HLA.B","target":"CYBB","value":7},
{"source":"HLA.A","target":"FUCA1","value":9},
{"source":"HLA.A","target":"CYP27A1","value":10},
{"source":"HLA.A","target":"GRN","value":10},
{"source":"HLA.A","target":"TKT","value":9},
{"source":"HLA.A","target":"TNFAIP2","value":10},
{"source":"HLA.A","target":"NINJ1","value":9},
{"source":"HLA.A","target":"CLEC4E","value":10},
{"source":"HLA.A","target":"PTAFR","value":10},
{"source":"HLA.A","target":"ALDH2","value":10},
{"source":"HLA.A","target":"MARCKS","value":10},
{"source":"HLA.A","target":"LYZ","value":10},
{"source":"HLA.A","target":"GRINA","value":10},
{"source":"HLA.A","target":"TNFAIP6","value":10},
{"source":"HLA.A","target":"SOD2","value":10},
{"source":"HLA.A","target":"SPARC","value":10},
{"source":"HLA.A","target":"CTSS","value":10},
{"source":"HLA.A","target":"HCK","value":10},
{"source":"HLA.A","target":"PILRA","value":10},
{"source":"HLA.A","target":"SNX10","value":10},
{"source":"HLA.A","target":"MMP14","value":9},
{"source":"HLA.A","target":"GLRX","value":10},
{"source":"HLA.A","target":"PSAP","value":10},
{"source":"HLA.A","target":"C15orf48","value":10},
{"source":"HLA.A","target":"DRAM1","value":10},
{"source":"HLA.A","target":"RILPL2","value":7},
{"source":"HLA.A","target":"IFNGR1","value":10},
{"source":"HLA.A","target":"KYNU","value":10},
{"source":"HLA.A","target":"NCOA4","value":10},
{"source":"HLA.A","target":"HLA.B","value":10},
{"source":"HLA.A","target":"SLC2A6","value":10},
{"source":"HLA.A","target":"OAZ2","value":8},
{"source":"HLA.A","target":"DMXL2","value":8},
{"source":"HLA.A","target":"NUPR1","value":8},
{"source":"HLA.A","target":"DNASE2","value":8},
{"source":"SLC2A6","target":"FUCA1","value":10},
{"source":"SLC2A6","target":"CYP27A1","value":11},
{"source":"SLC2A6","target":"GRN","value":11},
{"source":"SLC2A6","target":"TKT","value":10},
{"source":"SLC2A6","target":"TNFAIP2","value":11},
{"source":"SLC2A6","target":"NINJ1","value":9},
{"source":"SLC2A6","target":"CLEC4E","value":11},
{"source":"SLC2A6","target":"PTAFR","value":11},
{"source":"SLC2A6","target":"ALDH2","value":11},
{"source":"SLC2A6","target":"MARCKS","value":11},
{"source":"SLC2A6","target":"LYZ","value":11},
{"source":"SLC2A6","target":"GRINA","value":11},
{"source":"SLC2A6","target":"TNFAIP6","value":11},
{"source":"SLC2A6","target":"SOD2","value":11},
{"source":"SLC2A6","target":"SPARC","value":11},
{"source":"SLC2A6","target":"CTSS","value":10},
{"source":"SLC2A6","target":"HCK","value":11},
{"source":"SLC2A6","target":"PILRA","value":11},
{"source":"SLC2A6","target":"SNX10","value":11},
{"source":"SLC2A6","target":"MMP14","value":10},
{"source":"SLC2A6","target":"GLRX","value":11},
{"source":"SLC2A6","target":"PSAP","value":11},
{"source":"SLC2A6","target":"C15orf48","value":11},
{"source":"SLC2A6","target":"DRAM1","value":11},
{"source":"SLC2A6","target":"RILPL2","value":8},
{"source":"SLC2A6","target":"IFNGR1","value":11},
{"source":"SLC2A6","target":"KYNU","value":11},
{"source":"SLC2A6","target":"NCOA4","value":11},
{"source":"SLC2A6","target":"HLA.B","value":11},
{"source":"SLC2A6","target":"HLA.A","value":10},
{"source":"SLC2A6","target":"OAZ2","value":9},
{"source":"SLC2A6","target":"DMXL2","value":8},
{"source":"SLC2A6","target":"NUPR1","value":9},
{"source":"SLC2A6","target":"DNASE2","value":9},
{"source":"SLC2A6","target":"CYBB","value":7},
{"source":"OAZ2","target":"FUCA1","value":8},
{"source":"OAZ2","target":"CYP27A1","value":9},
{"source":"OAZ2","target":"GRN","value":9},
{"source":"OAZ2","target":"TKT","value":8},
{"source":"OAZ2","target":"TNFAIP2","value":9},
{"source":"OAZ2","target":"NINJ1","value":7},
{"source":"OAZ2","target":"CLEC4E","value":9},
{"source":"OAZ2","target":"PTAFR","value":9},
{"source":"OAZ2","target":"ALDH2","value":9},
{"source":"OAZ2","target":"MARCKS","value":9},
{"source":"OAZ2","target":"LYZ","value":9},
{"source":"OAZ2","target":"GRINA","value":9},
{"source":"OAZ2","target":"TNFAIP6","value":9},
{"source":"OAZ2","target":"SOD2","value":9},
{"source":"OAZ2","target":"SPARC","value":9},
{"source":"OAZ2","target":"CTSS","value":8},
{"source":"OAZ2","target":"HCK","value":9},
{"source":"OAZ2","target":"PILRA","value":9},
{"source":"OAZ2","target":"SNX10","value":9},
{"source":"OAZ2","target":"MMP14","value":8},
{"source":"OAZ2","target":"GLRX","value":9},
{"source":"OAZ2","target":"PSAP","value":9},
{"source":"OAZ2","target":"C15orf48","value":9},
{"source":"OAZ2","target":"DRAM1","value":9},
{"source":"OAZ2","target":"RILPL2","value":8},
{"source":"OAZ2","target":"IFNGR1","value":9},
{"source":"OAZ2","target":"KYNU","value":9},
{"source":"OAZ2","target":"NCOA4","value":9},
{"source":"OAZ2","target":"HLA.B","value":9},
{"source":"OAZ2","target":"HLA.A","value":8},
{"source":"OAZ2","target":"SLC2A6","value":9},
{"source":"OAZ2","target":"NUPR1","value":7},
{"source":"OAZ2","target":"DNASE2","value":7},
{"source":"OAZ2","target":"CYBB","value":7},
{"source":"SLAMF7","target":"BASP1","value":7},
{"source":"SLAMF7","target":"SAT1","value":8},
{"source":"SLAMF7","target":"SOD2","value":8},
{"source":"SLAMF7","target":"SLC43A2","value":7},
{"source":"SLAMF7","target":"CSTA","value":8},
{"source":"SLAMF7","target":"NCOA4","value":8},
{"source":"CSTB","target":"ATP5G3","value":10},
{"source":"PIM3","target":"ALCAM","value":7},
{"source":"PIM3","target":"HMG20B","value":7},
{"source":"PIM3","target":"FABP4","value":7},
{"source":"PIM3","target":"TIMP3","value":7},
{"source":"PIM3","target":"MFSD12","value":7},
{"source":"PIM3","target":"PHLDA1","value":7},
{"source":"PIM3","target":"RPS6","value":7},
{"source":"PIM3","target":"PLA2G7","value":7},
{"source":"PIM3","target":"PTPRE","value":7},
{"source":"PHLDA1","target":"ALCAM","value":11},
{"source":"PHLDA1","target":"HMG20B","value":10},
{"source":"PHLDA1","target":"FABP4","value":10},
{"source":"PHLDA1","target":"IL1RN","value":7},
{"source":"PHLDA1","target":"LPL","value":7},
{"source":"PHLDA1","target":"TIMP3","value":10},
{"source":"PHLDA1","target":"MFSD12","value":10},
{"source":"PHLDA1","target":"PIM3","value":7},
{"source":"PHLDA1","target":"LIMS1","value":7},
{"source":"PHLDA1","target":"RPS6","value":10},
{"source":"PHLDA1","target":"PLA2G7","value":10},
{"source":"PHLDA1","target":"PTPRE","value":10},
{"source":"PHLDA1","target":"CAMK1","value":7},
{"source":"PHLDA1","target":"MMP7","value":7},
{"source":"LIMS1","target":"ALCAM","value":7},
{"source":"LIMS1","target":"HMG20B","value":7},
{"source":"LIMS1","target":"FABP4","value":7},
{"source":"LIMS1","target":"IL1RN","value":7},
{"source":"LIMS1","target":"LPL","value":7},
{"source":"LIMS1","target":"TIMP3","value":7},
{"source":"LIMS1","target":"MFSD12","value":7},
{"source":"LIMS1","target":"PHLDA1","value":7},
{"source":"LIMS1","target":"CAMK1","value":7},
{"source":"LIMS1","target":"MMP7","value":7},
{"source":"RPS6","target":"ALCAM","value":10},
{"source":"RPS6","target":"HMG20B","value":9},
{"source":"RPS6","target":"FABP4","value":9},
{"source":"RPS6","target":"TIMP3","value":9},
{"source":"RPS6","target":"MFSD12","value":9},
{"source":"RPS6","target":"PIM3","value":7},
{"source":"RPS6","target":"PHLDA1","value":10},
{"source":"RPS6","target":"PLA2G7","value":10},
{"source":"RPS6","target":"PTPRE","value":10},
{"source":"PLA2G7","target":"ALCAM","value":10},
{"source":"PLA2G7","target":"HMG20B","value":10},
{"source":"PLA2G7","target":"FABP4","value":9},
{"source":"PLA2G7","target":"TIMP3","value":9},
{"source":"PLA2G7","target":"MFSD12","value":10},
{"source":"PLA2G7","target":"PIM3","value":7},
{"source":"PLA2G7","target":"PHLDA1","value":10},
{"source":"PLA2G7","target":"RPS6","value":10},
{"source":"PLA2G7","target":"PTPRE","value":10},
{"source":"PLA2G7","target":"SLC7A11","value":7},
{"source":"PLA2G7","target":"CD86","value":7},
{"source":"PTPRE","target":"ALCAM","value":10},
{"source":"PTPRE","target":"HMG20B","value":9},
{"source":"PTPRE","target":"FABP4","value":9},
{"source":"PTPRE","target":"TIMP3","value":9},
{"source":"PTPRE","target":"MFSD12","value":9},
{"source":"PTPRE","target":"PIM3","value":7},
{"source":"PTPRE","target":"PHLDA1","value":10},
{"source":"PTPRE","target":"RPS6","value":10},
{"source":"PTPRE","target":"PLA2G7","value":10},
{"source":"CAMK1","target":"ALCAM","value":7},
{"source":"CAMK1","target":"HMG20B","value":7},
{"source":"CAMK1","target":"FABP4","value":7},
{"source":"CAMK1","target":"IL1RN","value":7},
{"source":"CAMK1","target":"LPL","value":7},
{"source":"CAMK1","target":"TIMP3","value":7},
{"source":"CAMK1","target":"MFSD12","value":7},
{"source":"CAMK1","target":"PHLDA1","value":7},
{"source":"CAMK1","target":"LIMS1","value":7},
{"source":"CAMK1","target":"MMP7","value":7},
{"source":"MMP7","target":"ALCAM","value":7},
{"source":"MMP7","target":"HMG20B","value":7},
{"source":"MMP7","target":"FABP4","value":7},
{"source":"MMP7","target":"IL1RN","value":7},
{"source":"MMP7","target":"LPL","value":7},
{"source":"MMP7","target":"TIMP3","value":7},
{"source":"MMP7","target":"MFSD12","value":7},
{"source":"MMP7","target":"PHLDA1","value":7},
{"source":"MMP7","target":"LIMS1","value":7},
{"source":"MMP7","target":"CAMK1","value":7},
{"source":"DMXL2","target":"FUCA1","value":7},
{"source":"DMXL2","target":"CYP27A1","value":8},
{"source":"DMXL2","target":"GRN","value":8},
{"source":"DMXL2","target":"TKT","value":7},
{"source":"DMXL2","target":"TNFAIP2","value":8},
{"source":"DMXL2","target":"NINJ1","value":8},
{"source":"DMXL2","target":"CLEC4E","value":8},
{"source":"DMXL2","target":"PTAFR","value":8},
{"source":"DMXL2","target":"ALDH2","value":8},
{"source":"DMXL2","target":"MARCKS","value":8},
{"source":"DMXL2","target":"LYZ","value":8},
{"source":"DMXL2","target":"GRINA","value":8},
{"source":"DMXL2","target":"TNFAIP6","value":8},
{"source":"DMXL2","target":"SOD2","value":8},
{"source":"DMXL2","target":"SPARC","value":8},
{"source":"DMXL2","target":"CTSS","value":8},
{"source":"DMXL2","target":"HCK","value":8},
{"source":"DMXL2","target":"PILRA","value":8},
{"source":"DMXL2","target":"SNX10","value":8},
{"source":"DMXL2","target":"MMP14","value":8},
{"source":"DMXL2","target":"GLRX","value":8},
{"source":"DMXL2","target":"PSAP","value":8},
{"source":"DMXL2","target":"C15orf48","value":8},
{"source":"DMXL2","target":"DRAM1","value":8},
{"source":"DMXL2","target":"IFNGR1","value":8},
{"source":"DMXL2","target":"KYNU","value":8},
{"source":"DMXL2","target":"NCOA4","value":8},
{"source":"DMXL2","target":"HLA.B","value":8},
{"source":"DMXL2","target":"HLA.A","value":8},
{"source":"DMXL2","target":"SLC2A6","value":8},
{"source":"DMXL2","target":"NUPR1","value":7},
{"source":"DMXL2","target":"DNASE2","value":7},
{"source":"NUPR1","target":"FUCA1","value":9},
{"source":"NUPR1","target":"CYP27A1","value":9},
{"source":"NUPR1","target":"GRN","value":9},
{"source":"NUPR1","target":"TKT","value":9},
{"source":"NUPR1","target":"TNFAIP2","value":9},
{"source":"NUPR1","target":"NINJ1","value":7},
{"source":"NUPR1","target":"CLEC4E","value":9},
{"source":"NUPR1","target":"PTAFR","value":9},
{"source":"NUPR1","target":"ALDH2","value":9},
{"source":"NUPR1","target":"MARCKS","value":9},
{"source":"NUPR1","target":"LYZ","value":9},
{"source":"NUPR1","target":"GRINA","value":9},
{"source":"NUPR1","target":"TNFAIP6","value":9},
{"source":"NUPR1","target":"SOD2","value":9},
{"source":"NUPR1","target":"SPARC","value":9},
{"source":"NUPR1","target":"CTSS","value":8},
{"source":"NUPR1","target":"HCK","value":9},
{"source":"NUPR1","target":"PILRA","value":9},
{"source":"NUPR1","target":"SNX10","value":9},
{"source":"NUPR1","target":"MMP14","value":8},
{"source":"NUPR1","target":"GLRX","value":9},
{"source":"NUPR1","target":"PSAP","value":9},
{"source":"NUPR1","target":"C15orf48","value":9},
{"source":"NUPR1","target":"DRAM1","value":9},
{"source":"NUPR1","target":"RILPL2","value":7},
{"source":"NUPR1","target":"IFNGR1","value":9},
{"source":"NUPR1","target":"KYNU","value":9},
{"source":"NUPR1","target":"NCOA4","value":9},
{"source":"NUPR1","target":"HLA.B","value":9},
{"source":"NUPR1","target":"HLA.A","value":8},
{"source":"NUPR1","target":"SLC2A6","value":9},
{"source":"NUPR1","target":"OAZ2","value":7},
{"source":"NUPR1","target":"DMXL2","value":7},
{"source":"NUPR1","target":"DNASE2","value":9},
{"source":"NUPR1","target":"CYBB","value":7},
{"source":"DNASE2","target":"FUCA1","value":9},
{"source":"DNASE2","target":"CYP27A1","value":9},
{"source":"DNASE2","target":"GRN","value":9},
{"source":"DNASE2","target":"TKT","value":9},
{"source":"DNASE2","target":"TNFAIP2","value":9},
{"source":"DNASE2","target":"NINJ1","value":7},
{"source":"DNASE2","target":"CLEC4E","value":9},
{"source":"DNASE2","target":"PTAFR","value":9},
{"source":"DNASE2","target":"ALDH2","value":9},
{"source":"DNASE2","target":"MARCKS","value":9},
{"source":"DNASE2","target":"LYZ","value":9},
{"source":"DNASE2","target":"GRINA","value":9},
{"source":"DNASE2","target":"TNFAIP6","value":9},
{"source":"DNASE2","target":"SOD2","value":9},
{"source":"DNASE2","target":"SPARC","value":9},
{"source":"DNASE2","target":"CTSS","value":8},
{"source":"DNASE2","target":"HCK","value":9},
{"source":"DNASE2","target":"PILRA","value":9},
{"source":"DNASE2","target":"SNX10","value":9},
{"source":"DNASE2","target":"MMP14","value":8},
{"source":"DNASE2","target":"GLRX","value":9},
{"source":"DNASE2","target":"PSAP","value":9},
{"source":"DNASE2","target":"C15orf48","value":9},
{"source":"DNASE2","target":"DRAM1","value":9},
{"source":"DNASE2","target":"RILPL2","value":7},
{"source":"DNASE2","target":"IFNGR1","value":9},
{"source":"DNASE2","target":"KYNU","value":9},
{"source":"DNASE2","target":"NCOA4","value":9},
{"source":"DNASE2","target":"HLA.B","value":9},
{"source":"DNASE2","target":"HLA.A","value":8},
{"source":"DNASE2","target":"SLC2A6","value":9},
{"source":"DNASE2","target":"OAZ2","value":7},
{"source":"DNASE2","target":"DMXL2","value":7},
{"source":"DNASE2","target":"NUPR1","value":9},
{"source":"DNASE2","target":"CYBB","value":7},
{"source":"CYBB","target":"FUCA1","value":7},
{"source":"CYBB","target":"CYP27A1","value":7},
{"source":"CYBB","target":"GRN","value":7},
{"source":"CYBB","target":"TKT","value":7},
{"source":"CYBB","target":"TNFAIP2","value":7},
{"source":"CYBB","target":"CLEC4E","value":7},
{"source":"CYBB","target":"PTAFR","value":7},
{"source":"CYBB","target":"ALDH2","value":7},
{"source":"CYBB","target":"MARCKS","value":8},
{"source":"CYBB","target":"LYZ","value":7},
{"source":"CYBB","target":"GRINA","value":7},
{"source":"CYBB","target":"TNFAIP6","value":7},
{"source":"CYBB","target":"SOD2","value":7},
{"source":"CYBB","target":"SPARC","value":7},
{"source":"CYBB","target":"HCK","value":7},
{"source":"CYBB","target":"PILRA","value":7},
{"source":"CYBB","target":"SNX10","value":7},
{"source":"CYBB","target":"GLRX","value":8},
{"source":"CYBB","target":"PSAP","value":7},
{"source":"CYBB","target":"C15orf48","value":7},
{"source":"CYBB","target":"DRAM1","value":7},
{"source":"CYBB","target":"RILPL2","value":7},
{"source":"CYBB","target":"IFNGR1","value":7},
{"source":"CYBB","target":"KYNU","value":7},
{"source":"CYBB","target":"NCOA4","value":7},
{"source":"CYBB","target":"HLA.B","value":7},
{"source":"CYBB","target":"SLC2A6","value":7},
{"source":"CYBB","target":"OAZ2","value":7},
{"source":"CYBB","target":"NUPR1","value":7},
{"source":"CYBB","target":"DNASE2","value":7},
{"source":"CYBB","target":"PRDX1","value":7},
{"source":"PRDX1","target":"MARCKS","value":7},
{"source":"PRDX1","target":"GLRX","value":7},
{"source":"PRDX1","target":"CYBB","value":7},
{"source":"SLC7A11","target":"PLA2G7","value":7},
{"source":"SLC7A11","target":"CD86","value":7},
{"source":"CD86","target":"PLA2G7","value":7},
{"source":"CD86","target":"SLC7A11","value":7}
]}