[
    {"id":"gene","parent":"#", "text":"Gene Level"},
	{"id":"mf","parent":"#", "text":"Molecular Function"},
	{"id":"cc","parent":"#", "text":"Cellular Component"},
	{"id":"bp","parent":"#", "text":"Biological Process"}, 
    {"id":"cycle","parent":"#", "text":"Cell Cycle"},
    {"id":"cycle-G1","parent":"cycle", "text":"G1"},
    {"id":"cycle-G2","parent":"cycle", "text":"G2"},
    {"id":"cycle-M", "parent":"cycle", "text":"M"},
    {"id":"cycle-S", "parent":"cycle", "text":"S"}
]